3
2007.23 3773.85
2573.63 1357.19 2903.8
3711.73 2002.37
3975.28 6223.76 4634.94
4063.12 2550.85 626.569
4425.33 7526.51 8898.34
4631.05 3684.94 8767.14
51.8974 9905.85 1084.62
7264.04 2722.5 6796.66
7327.31 1078.94
7381.46 4796.19 6536.34
74.5319 3600.12 3529.48
7811.24 7052.32
8178.73 1442.77
9459.59 7769.75 3205.49
