3734.97 1230.35 8287.15 6072.84 4225.78
2847.68 5710.13 934.281 402.468 900.541
1307.76 7189.61 3091.27 6198.96 4113.76
6812.6 1203.46 7523.98 6963.06 2369.12
6223.41 9186.15 6611.28 3995.92 1197.6
9118.05 8207.63 414.919 3408.23 4521.61
7694.34 2276.68 7006.64 9327.17 3004.23
3596.72 2463.79 8234.74 2237.07 7079.69
1005.94 8050.98 1932.75 6949.02 9289.03
4093.99 5323.02 1290.95 1298.43 2517.65
5139.01 8458 8613.17 5710.66 2558.21
352.641 7732.96 904.239 712.531 9700.79
7541.92 1992.13 9996.13 3536.72 3595.2
4960.41 7963.56 7905.86 6273.33 9373.89
2186.97 7409.9 6226.57 9295.45 7020.55
197.544 2790.87 7433.9 3325.43 2328.9
8027.79 3246.58 9092.56 5443.53 5726.65
3030.93 6078.04 9219.46 6421.7 3484.48
4011.72 1756.24 9910.68 1755.74 9203.89
9224.57 9571.2 831.532 9156.28 3033.41
6087.07 7639.78 9189.34 4192.39 9819.06
5905.97 8997.9 5755.86 3018.73 4805.18
5300.5 1866.17 6006.26 5408.92 2998.21
8164.78 8108.77 6.31817 7911.98 2051.46
1916.76 90.8693 5819.38 7443.17 5434.9
3434.61 2919.32 147.5 9704.12 110.468
8437.43 1056.92 6093.43 4882.34 6734.23
1746.41 2853.42 3875.22 7981.11 7893.84
6918.68 136.259 9686.57 3855.88 4509.61
6895.38 1358.38 5497.53 84.2395 8158.62
4824.31 2473.01 7075.61 9704.45 1621.94
2135.93 6087.72 5354.19 466.927 3922.92
2082.6 1405.07 7761.54 9555.99 9680.82
2275.58 7564.52 6963.17 9773.75 8886.27
5840.17 3685.21 3912.92 7970.1 9534.4
3507.72 4652.49 3601.79 7001.51 3431.51
3050.91 4705.28 155.61 2218.13 67.5505
8295.65 560.931 9691.35 8223.17 9034.75
1592.96 2139.63 405.449 7040.12 9290.07
982.236 1355.01 8893.08 5056.86 1344.11
9963.01 9196.82 8571.68 7564.29 6630.95
52.7869 9571.12 9649.85 8888.79 8054.86
9330.49 2731.57 4039.25 1965.96 944.353
4658.04 8332.26 3523.46 8191.56 4185.92
7817.29 2751.44 480.222 850.848 9239.95
19.3838 7485.96 8422.38 7538.87 6287.39
6790.87 3261.03 8734.39 717.861 5447.77
4464.92 8248.8 7508.63 5990.64 2492.87
8895.16 2314.04 8747.11 3719.45 3171.13
8865.19 5612.04 9085.07 7873.95 5567.83
5281.54 1266.6 9600.88 4562.67 4195.4
2630.18 7269.03 9329.99 2416.55 7182.32
9372.62 2908.14 6876.77 5547.74 9385.38
6049.3 5454.14 2635.72 9593.53 1371.09
5485.84 7092.55 3651.05 8064.1 5819.72
3915.45 3782.23 5039.66 9185.19 733.619
9056.5 5718.15 8294.7 3344.39 2107.51
6008.51 4820.99 1062.79 8857.85 1924.99
4297.02 2716.49 6018.32 2971.28 562.717
1177.29 1372.52 7568.58 6477.95 9031.09
7672.55 7646.49 8116.62 3510.56 1717.62
1460.26 1439.36 4837.6 6777.7 9963.05
7639.31 3677.22 8868.28 434.878 9602.37
6727.84 9020.8 626.242 1607.92 3426.97
7402.28 7095.37 1303.24 1737.04 5895.56
16.2331 3714.58 2118.37 8633.89 426.31
6145.1 8749.16 5761.82 7731.95 6416.28
4176.03 4992.98 3508.87 9617.95 2723
8223.31 7043.39 5182.16 7458.08 893.148
8881.35 1832.38 4855.49 7485.3 972.123
2509.94 6216.62 8620.81 1716.94 9337.38
1028 565.394 7179.3 362.818 8450.66
5872.49 5036.86 233.819 7611.46 6851.84
2895.96 6857.72 5265.56 67.9004 2210.62
5021.12 9214.48 2310.71 4021.71 7787.14
699.657 6053.55 7387.72 9113.12 6033.68
368.521 5328.71 6437.51 4360.67 8232.08
5249.91 6255.87 5202.19 8899.81 4737.68
3561.3 4373.79 3071.31 3557.77 8303.54
6633.71 6903.87 865.128 48.5071 9104.53
9279.18 356.139 9662.8 8377 7901.97
5776.09 9499.59 9093.87 4023.67 8020.63
403.302 8925.98 252.939 4888.08 4745.63
4592.08 21.915 4399.94 7871.43 9044.95
4281.34 9086.97 1297.04 3310.88 8156.2
5647.73 5764.27 7711.95 7958.7 5362.85
4244.19 4284.38 4864.32 8885.91 3026.67
3329.29 2205.24 3228.07 9201.98 5404.53
2245.66 1004.87 4974.49 9487.06 9009.8
5767.56 6999.79 6808.23 9284.43 1326.29
1404.81 6086.64 5143.67 6663.75 426.092
5984.75 1673.83 4635.35 1890.01 2360.52
761.082 8778.71 4766.37 2936.93 5741.25
4675.36 4715.32 164.028 5660.7 4335.46
6164.5 8115.24 6863.8 730.518 3206.76
3462.27 1063.57 1010.68 3375.43 5130.4
4244.48 8643.85 2517.85 3278.19 8491.45
5130.67 4271.69 3479.52 2972.66 4419.14
2196.16 207.34 8655.14 5589.75 7369.31
5711.55 9432.87 2045.89 3829.86 4457.06
2956.55 5096.31 6422.4 1915.1 332.932
8282.44 8372.67 8970.93 7247.38 9373.9
4953.65 8927.04 7724.82 6778.62 7420.39
7375.58 2435.45 8716.56 482.447 7515.05
803.075 5116.88 3460.02 5851.51 206.119
4229.04 990.466 2567.05 3542.93 8042.29
1379.94 7562.28 4814.62 9996.8 9843.12
6097.53 7512.96 4243.63 3877.24 8055.41
8323.32 5101.62 470.71 6122.63 6015.6
3887.02 5829.16 4180.94 8055.23 9794.75
5993.69 5417.86 1647.58 7411.54 8516.74
2109.33 7324.33 2958.49 195.162 5470.09
9723.99 6906.37 1971.6 9264.15 949.702
2899.73 5015.65 2156.29 1174.4 6457.46
3510.18 9369.09 4214.96 2853.91 5972.98
6801.42 624.822 2242.8 2156.57 7417.97
3830.82 6508.74 9925.58 3212.01 7614.67
3654.95 2154.16 4609.1 9369.78 9111.47
1615.12 7227.91 5093.21 1049.05 5080.02
8939.08 3338.47 5953.98 5553 3063.16
2478.72 8146.17 6140.55 5325.66 3375.02
9990.79 362.379 2133.49 470.702 3452.54
2885.12 319.431 2229.48 8935.43 7666.64
546.305 843.968 5170.96 4535.75 9409.05
7589.42 5729.4 9882.95 7073.66 5190.9
3502.89 9085.06 8602.38 9025.37 3426.91
4432.75 4170.67 808.97 7535.65 3698.88
8030.14 9150.31 1269.02 2281.59 4136.59
7045.24 3143.45 7742.73 4143.94 783.913
1005.04 2094.03 1219.79 6486.29 1955.91
3379.55 3940.5 6668.37 8530.85 348.501
2857.48 1830.28 5852.14 5561.99 9546.01
3299.15 3807.94 3946.46 3888.72 3610.85
9338.27 8988.24 1069.88 1464.82 6116.98
9715.52 4214.83 7667.79 106.575 5343.35
378.317 2486.14 8347.7 5019.56 1339.62
4866.94 2876.98 2597.16 5336.12 466.06
5445.36 1059.75 1734.77 3161.46 5292.48
5377.98 7055.74 8485.9 4438.19 8713.52
9606.01 8448.16 1614.94 5313.4 5442.71
6146.91 3812.4 7439.7 1550 556.015
2156.7 2397.55 1468.98 6153.12 2818.55
7068.01 7249.96 8158.49 4864.34 6977.19
1532.37 3634.8 1268.54 6057.01 2620.71
2899.25 8273.59 1681.44 7650.52 6459.48
1836.83 2573.86 6051.71 3584 2452.97
7090.39 774.159 3851.5 5090.85 2502.88
2222.24 5679.39 3025.7 6186.34 9630.36
3217.23 4193.74 3913.95 2542.66 4723.52
905.069 7993.85 8719.32 3062.29 4861.49
4095.57 5887.19 5648.69 525.688 2641.39
6160.41 9601.87 2986.27 8671.86 2271.7
6819.41 7405.69 6205.52 6658.85 4264.09
3009.45 7137.77 4768.23 359.822 5659.2
3242.74 3336.43 9232.96 589.057 8297.77
9265.1 2747.58 1477.24 474.333 4767.83
9629.53 7631.27 5034.91 142.341 5814.61
7171.93 7657.74 9483.59 4269.31 6931.21
3952.27 2802.91 4333.36 1772.38 9441.77
5910.69 1747.83 3890.18 5960.09 3015.6
8039.19 8897.55 2928.47 6944.15 4449.98
8029.56 1113.23 9476.76 3757.42 3051.02
8946.21 9019.87 1695.48 4845.22 1901.5
3534.46 1688.59 5119.66 774.526 2881.43
2940.2 4226.83 5163.38 2589.37 4415.41
4433.04 949.507 2185.35 4625.81 3274.23
977.229 9234.54 7394.33 9890.95 2704.95
6260.35 2667.44 7555.91 2686.28 8774.81
7670.13 3769.63 8152.59 3988.43 1664.28
3772.13 7679.82 8449.01 5689.14 8450.82
9873.52 2293.63 2105.95 86.7918 2028.35
4944.48 6989.96 8342.66 6633.77 915.716
2483.13 2707.19 5962.45 4184.72 200.79
8763.29 3915.67 4172.14 8476.02 9357.69
9972.1 6847.33 7405.45 5222.53 1892.91
4215.04 985.375 8564.74 2404.89 4098.15
7619.52 5364.23 8801.18 2480.91 2185.57
303.513 6484.56 4696.59 5160.85 7973.48
6445.89 779.535 49.8005 9686.98 6930.73
1626.42 4566.32 9033.84 9551.53 4511.64
6526.14 7259.24 3100.97 6869.46 3688.51
6068.37 468.049 8950.19 6878.08 2191.57
1125.59 1790.77 3030.89 476.084 426.87
4921.66 390.673 4303.92 3913.11 3541.14
2087.44 8943.88 5352.55 1611.41 3625.68
8330.03 2500.24 9308.99 7835.88 3871.88
5912.93 6118.51 3945.87 8609.75 4743.08
1775.7 9012.04 202.222 7891.84 3818.69
4.57685 3838.27 2654.6 3066.2 6431.72
8199.36 5754.21 5226.59 6969.08 2043.88
8971.07 4475.4 4996.14 3829.8 9677.28
6110.69 6754.19 2796.33 4400.84 6538.91
3158.03 708.747 6952.45 8583.4 4234.17
9187.69 1878.97 9646.53 8930.56 9643.67
5215.77 7648.63 1469.73 4660.94 8636.23
3836.15 7443.04 111.456 6938.13 8507.02
6675.89 8008.88 7302.84 1113.03 6151.75
2210.59 9559.62 3222.51 6960.26 931.787
100.037 9224.42 236.397 7930.66 9087.07
5092.03 6699.79 9478.23 9434.34 3170.74
2171.85 9572.9 5188.51 9805.17 9490.55
5733.27 1756.97 8208.12 5533.66 4398.83
1605.65 9930.08 8699.42 7780.35 9476.58
2609.94 9555.1 5934.51 4616.76 8593.06
5250.49 6618.52 6379.03 402.005 1435.06
9844.99 1523.64 7242.96 4120.48 8502.1
7975.52 2673.6 9737.93 7609.72 3419.74
7901.04 6459.23 4397.14 5764.26 8778.78
8548.41 2788.23 8167.38 8784.13 7224.37
9406.13 352.363 1458.34 3006.53 2023.9
2978.12 9255.78 1325.9 1615.05 3547.93
2882.35 2937.92 2034.86 7202.87 879.714
2548.93 810.612 9030.42 9947.8 2179.78
3167.68 5455.59 2405.47 580.816 1538.36
9949.67 6027.64 2724.91 7057.51 8349.08
9343.87 8943.05 3969 7647.34 5726.44
8587.25 4972.37 7796.31 150.214 1111.64
6647.74 5267.38 6122.32 1164.33 923.789
6535.65 8785.43 1309.91 9761.72 7456.35
9298.22 8061.94 7228.53 8148.1 1476.66
4932.37 2748.07 8679.07 2695.3 8482.32
3287.98 4627.02 6248.15 4729.88 4244.42
4335.97 3502.43 4196.59 1651.59 6998.1
1701.39 9000.14 1317.02 5871.61 2334.26
4434.22 5508.86 9882.61 5797.49 6467.12
77.5348 8175.9 3366.77 2092.23 911.352
7466.81 5970.5 8299.95 1287.34 2381.65
9732.66 8322.87 8663.84 4394.36 4676.95
9885.77 7837.76 5924.46 2170.73 8054.01
9377.38 6454.51 6414.1 7736.37 5749.73
4229.66 7564.07 901.558 4258.26 1371.54
4588.6 4557.04 3287.32 8747.33 7497.62
8356.23 8371.15 7774.27 3909.99 2003.13
4346.77 355.636 381.395 7021.2 7926.52
6843.15 7794.51 6066.84 234.985 9502.35
8457.36 1528.98 4705.95 3635.61 1751.45
6145.04 9781.09 1951.23 8538.19 6189.51
4656.26 2843.43 6419.78 9826.93 5373.11
7104.4 9540.49 7876.91 4279.55 5756.84
5335.9 3311.97 9812.08 7369.15 8765.16
5308.61 1701.63 1910.06 5565.43 2602.74
6257.13 9535.36 602.459 7436.92 1893.6
861.835 7944.83 2408.18 6432.05 6286.59
9939 2690.02 5855.85 1064.19 9897.21
2741.98 6725.79 4795.47 1210.15 6868.05
2711.27 4000.53 2553.3 9241.56 5415.06
5539.8 6225.69 9720.11 8300.84 9222.82
7377.66 6525.27 9587.17 3446.46 433.642
9335.61 8530.09 2260.21 9455.97 6640.58
6248.3 6521.91 510.789 786.079 7128.86
9273.12 8588.15 470.485 2776.34 7530.8
6440.5 7054.05 4693.17 6715.93 3403.88
7930.06 6542.18 2031.92 8544.74 1115.71
9708.03 2082.27 1289.29 7475.34 8572.68
7373.84 5063.19 7185.25 3767.65 1491.25
2209.39 6364.5 6426.96 4450.67 8404.56
9448.71 734.747 3159.59 3327.62 9897.06
3656.87 9272.72 6218.5 959.434 2408.29
6606.79 1158.3 495.445 5178.1 9504.55
9226.91 1678.06 4391.3 8506.49 5577.41
7798.91 9046.63 5317.82 1377.98 7621.15
8361.62 1472.49 1620.14 7088.08 736.136
961.082 9043.47 232.034 7300.58 4797.21
4471.87 1603.39 5634.57 9195.26 7013.02
4610.7 5024.16 8285.49 6754.45 9556.83
9512.71 4253.48 3973.5 9639.06 1078.41
2803.41 2285.2 1697.03 909.957 7117.26
764.116 7105.13 6614.97 9532.2 1395.92
9935.67 7922.56 2857.78 6388.02 6361.37
2421.4 3091.17 150.485 4552.99 9425.07
6320.29 4601.04 4030.27 5296.82 2016.04
4761.19 3183.58 1094.93 6065.13 7427.88
642.156 6204.3 6485.04 2922.25 670.038
5918.04 5056.88 8663.33 917.225 142.988
366.617 478.528 7102.09 3680.8 5513.3
8650.28 8027.86 6296.54 54.5871 1829.58
9840.99 9655.96 6703.2 4981.03 2801.46
2563.19 6680.74 7257.1 4812.47 1311.5
8481.4 219.911 140.593 9300.38 4258.56
8523.63 523.428 9550.33 8774.36 8688.7
7507.52 8340.78 1121.15 1695.64 5137.27
5990.37 2540.01 3330.18 2081.07 9618.93
8634.08 5337.77 2894.8 7783.49 2901.4
9796.87 4576.81 5659.79 9460.92 8025.5
3403.56 6406.72 4439.34 65.2991 1321.84
9626.65 1020.76 1186.7 1812.02 1155.47
9308.68 6468.06 1053.88 5670.68 9659.63
7726.2 5388.97 5535.22 4985.63 3399.26
5728.72 7924.38 8504.07 4101.97 755.682
3543.74 1314.83 5290.2 9206.65 1221.85
4160.69 5794.47 1412.81 7507 9809.19
7102.82 8917.62 8951.78 3558.22 2549.37
7096.24 6494.69 1096.03 2338 9776.54
717.98 1684.74 7334.68 9427.72 8770.46
353.344 694.926 143.657 2414.79 2802.64
4479.18 9524.86 8493.94 431.48 8252.22
5067.12 9631.85 2135.62 4139.91 3176.33
4771.85 131.713 9371.53 236.76 4225.15
6632.87 5376.26 4090.39 6352.41 6158.01
2368.29 8549.79 3114.6 8470.26 3367.05
2946.52 1871.37 259.863 6619.88 6009.02
5178.49 8334.71 1143.68 5999.27 2180.81
9087.78 1968.12 8220.01 7505.42 975.724
8702.56 6257.31 534.959 2914.11 4867.06
5456.45 8316.79 3201.6 2267.26 4387.83
8845.81 6135.4 7647.98 6020.55 6081.32
1163.79 9074.78 1079.96 5842.29 5610.56
1982.36 788.73 2100.21 4815.88 416.448
5419.78 1471.58 935.06 9251.41 2525.52
5509.7 1613.24 4759.97 5066.14 2310.95
9969.51 1682.64 5392.15 1391.26 8275.5
842.898 7535.36 8861.86 432.709 1056.51
8789.19 5716.23 6002.78 3132.23 3279.89
5768.85 9476.36 130.643 3937.91 8288.59
7041.66 4130.4 2350.92 3234.77 9735.36
8581.25 7852.75 2064 5049.58 5794.1
3974.57 9208.75 8080.67 372.12 101.049
9931.3 4767.55 4168.99 6152.54 6837.87
1294.03 5427.18 9316.61 7813.99 6007.77
2319.14 9495.43 2853.53 2662.27 610.039
2150.43 6335.34 3940.51 7712.16 996.309
5539.35 4375.05 1453.29 6826.07 1744.28
9383.67 4261.22 5164.41 8768.88 180.85
2095.86 2045.42 1744.11 7191.55 5710.18
3407.59 6741.39 7821.96 9419.86 1408.36
8940.07 515.766 950.493 1514.96 3674.03
8565.77 3645.59 4476.8 8236.49 7956.38
3474.57 4219.34 4606.49 4462.7 8153.76
8123.5 5325.87 6689.83 4725.99 5480.85
9184.06 5639.7 332.432 3777 9884.96
6439.86 8647.35 8344.49 5342.87 1065.34
55.6348 5979.82 1926.91 8827.41 6704.15
4461.58 5157.04 5140.01 7464.16 7409.85
1221.22 6918.51 5827.82 9177.13 2802.8
8926.48 2838.79 5698.19 5511.4 5027.92
4971.78 4518.46 5639.52 7427.77 5859.68
3682.31 4704.48 610.375 8170.42 8474.57
348.148 847.472 436.983 5806.71 3604.02
2576.79 3997.29 6129.96 2201.73 3274.7
6560.33 715.705 2630.88 6198.37 3280.41
583.203 1866.16 7770.05 377.156 6345.38
1012.05 1835.91 7837.33 5744.28 7756.18
5491.13 1371.94 2610.41 4257.35 5517.01
8678.81 6539.69 3036.26 8350.98 4519.03
904.713 6568.86 2692.23 1095.91 3370.77
6200.28 329.076 3143.72 7787.32 8239.76
5609.53 3906.21 6044.4 8263.44 9753.04
3152.29 1924.18 8700.38 8105.91 4421.51
9437.69 3326.36 3582.28 7724.22 7265.54
5305.69 4921.61 923.416 5904.99 8121.14
5456.1 53.8085 2237.42 4592.69 7249.69
8138.53 8466.63 594.19 9923.44 2422.91
392.291 1850.14 3340.21 7160.02 1402.72
3313.62 2439.56 6589.73 9008.29 4870.61
2508.73 3801.22 1894.06 773.608 2835.17
887.695 2144.73 4441.83 1642.49 9547.53
4462.09 6748.28 9396.35 8956.18 7543.8
8203.65 6648.17 1831.22 2386.1 7994.6
6269.56 9114.8 5928.94 8119.79 9442.22
2092.07 5696.4 34.0059 3675.67 7946.93
5897.25 3975.91 298.37 9437.88 2440.47
3983.1 1797.39 2844.12 3482.94 646.861
7211.53 9396.43 1819.56 158.566 3077.07
281.824 3916.57 2302.91 189.129 2713.08
9148.69 1294.7 3767.43 90.4967 2824.87
5868.63 4778.15 612.99 2316.55 4613.41
3012.47 2086.49 1274.52 665.073 6457.97
4743.57 3490.53 5413.69 4500.7 9366.41
5817.9 7317.78 1196.46 8634.27 7770.2
2853.25 554.679 3079.98 1518.85 7646.27
7961.72 7325.14 7014.94 5747.14 476.198
2079.48 5901.86 0.550147 9511.3 3955.22
2530.04 8778.42 1998.14 1300.82 10.5604
2633.66 2788.22 6418.77 7516.83 6281.59
8606.21 3993.93 3802.97 8943.99 6631.1
5262.99 1264.04 5258.66 1269.44 9238.2
7749.98 6693.86 3455.22 4974.58 5570.86
9400.42 6730.27 5971.97 862.503 7230.2
9461 3536.73 3905.27 1140.56 2586.6
7983.23 7698.04 1056.09 5949.93 2191.79
2348.71 7642.44 1099.93 2615.24 8662.63
9308.95 2846.49 640.903 1379.61 2968.71
6553.09 4345.01 7661.14 6983.77 9834.48
3283.41 1031.43 8100.12 8123.9 7735.64
4298.62 2867.7 5445.89 6124.9 4020.81
3672.97 742.802 2766.49 9442.64 7417.31
5070.3 4753.48 6773.11 3209.44 93.7073
7990.91 4597.72 3183.38 7265.31 5335.96
8340.71 3192.63 8582.59 3487.56 8873.29
1616.13 9481.38 2162.41 9275.95 9484.99
6826.16 2644.85 5270.46 5901.19 3744.03
8485.51 4693.86 3143.04 9975.92 6109.98
310.561 5724.19 3049.93 5430.36 7687.8
953.051 8980.69 6678.84 7738.43 855.681
9224.91 5915.62 8232.57 2704.95 3173.06
6521.58 5272.33 226.208 7109.32 397.647
38.1142 7473.42 5690.14 2490.17 8504.26
4974.17 5707.31 494.031 9867.35 7362.2
409.178 3327.15 1962.69 5041.31 1392.53
9725.49 6490.6 6458.68 2712.26 6022.12
8962.56 6594.98 3189.86 8158.76 2493.89
4216.69 7513.83 5464.84 483.655 4530.48
648.019 650.003 648.17 5940.71 3807.12
8104.35 2773.58 5416.85 4513.67 9542.42
1346.16 6323.39 383.574 5377.5 5327.98
8124.75 6782.86 9446.77 2100.9 8892.18
9703.59 9388.36 6266.97 5616.88 8745.3
6084.08 6620.94 7773.61 301.124 886.384
4182.84 5719.78 8783.45 3370.93 1419.95
1490.11 2580.66 3348.44 8869.91 8762.96
301.563 8503.33 3618.85 6735.42 9604.05
52.5182 1235.96 5017.24 6141.57 2730.36
5307.67 7453.77 7915.43 8913.43 117.381
1883.03 157.581 3120.55 2424.85 6098.55
6253.54 9526.24 8367.15 3731.03 8873.85
7213.23 1965.67 5115.07 6600.21 919.059
7812.67 8587.21 7251.09 7114.38 740.66
9888.71 7461.43 3589.93 4239.27 8313.98
1626.27 6704.59 8192.57 6359.36 8615.27
1329.29 3964.5 7731.12 2347.33 2874.6
9515.38 2626.78 886.694 4963.15 5655.16
6315.54 6748.34 8369.91 2088.29 6833.77
9036.14 7554.02 1350.95 4955.07 8023.66
7202.06 2214.24 4441.4 5438.18 8270.12
7967.88 6730.01 4910.51 6341.35 7456.03
370.492 3884.36 861.952 6755.89 633.667
4477.37 5415.93 5172.7 8198.13 9113.06
9888.37 8999.16 6761.99 5812.3 6420.85
6713.17 6906.86 4293.04 306.52 8572.66
8258.01 1705.9 2226.41 4522.34 6990.17
9428.49 4940.8 1405.26 2574.81 1863.66
8530.61 9162.18 7129 3163.64 256.893
8052.97 1889.15 9663.52 8245.43 7775.34
2958.5 6967.7 8916.35 3668.16 2456.41
6067.1 2183.06 7446.6 6489.41 4416.22
9690.65 1329.21 6461.28 3894.08 3031.83
8194.06 4821.93 3819.31 1575.56 3382.66
9446.65 4428.31 4573.42 8733.63 8638.22
8673.43 6733.99 6511.43 3117.25 6802.22
9134.55 7440.71 744.543 7030.76 4120.67
8006.78 2824.68 3100.76 8814.82 2486.87
439.484 7761.7 2514.23 3865.14 1463.73
6418.69 6257.1 617.609 6266.15 7800.4
7441.66 3962.12 3035.23 6454.98 9604.62
4115.06 7317.64 7825.21 3576.38 782.178
740.051 8560.65 8261.23 6257.09 1555.64
7855.38 9482.16 484.036 1328.75 4576.38
5139.82 5275.37 2916.46 7915.15 9070.78
7834.4 7289.14 1392.37 5753.54 8179.75
1880.5 7527.62 3190.05 3245.77 2411.28
8530.57 2312.64 9905.81 8467.8 6120.18
168.592 8238.06 8133.94 7285.71 213.127
6559.46 1885.72 4445.89 7435.05 2968.07
5284.66 6549.55 815.798 7781.07 7847.06
5285.21 7765.62 2763.04 8095.16 5901.71
4662.19 1892.4 1050.67 2597.14 9064.2
4755.19 1214.79 9128.7 1944.5 9831.18
6285.18 7019.81 795.353 4400.7 8085.63
5941.18 1060.72 3235.79 449.273 5295.56
1161.01 970.534 1439.54 2382.59 6620.81
6507.28 1537.32 3487.58 4166.59 684.305
7986.64 3627.74 228.865 2395.24 7675.54
6254.9 3988.84 4141.02 1221.42 9716.56
8342.82 1732.95 4530.18 4478.49 8376.47
6823.89 1467.87 8410.54 2785.89 7187.42
4080.89 9329.98 6335.33 9667.07 3395.79
4578.82 5590.07 7627.26 9098.03 2810.24
7291.88 7006.18 7131.4 4711.64 7922.48
6195.63 4087.19 795.424 6764.47 9683.48
8198.8 2645.98 4404.72 6966.57 8316.74
4108.76 5355.5 8040.31 5592.92 6653.5
5888.95 2998.32 1533.71 4687.74 9150.47
8600.72 7813.36 8214.58 2228.67 30.2443
3454.91 4918.34 7747.29 1684.67 8395.38
662.218 5742.63 4374.03 537.653 8631.01
2582.58 4179.46 2322.52 6774.9 4302.69
5865.43 2585.51 6219.99 8401.59 2374.47
1433.91 8099.76 7337.28 5805.2 2408.39
1742.17 7326.33 6292.48 3948.73 3816.45
2451.03 1401.01 3744.85 5971.22 2770.01
2456.08 5911.97 3716.19 3300.43 1892.58
7849.43 4707.79 5649.89 3941.88 43.9315
5300.97 2119.24 209.266 1333.69 7220.46
4115.48 7330.68 422.652 6604.61 9995.23
7296.44 8062.23 4969.61 802.693 4726.73
1090.26 4397.26 2231.7 2648.49 3549.3
118.392 2587.1 4781.71 9355.13 8297.95
1299 2748.13 6749.48 2229.08 3471.6
4175.34 4603.29 8102.6 7360.76 4263.02
9969.83 5923.32 5796.55 2633.69 3293.83
1015.93 4423.09 8007.44 7378.52 6954.89
954.24 1556.66 672.29 9871.96 8974.48
2061.36 3716.18 6863.78 8283.06 3012.43
4608.06 8695.83 7824.59 2370.75 5885.38
9158.64 6797.01 7032.51 2847.29 1602.03
423.265 859.761 3532.09 4864.9 929.24
7495.6 7195.66 3698.73 7966.44 1077.99
3514.42 8370.45 2488.67 5217.04 3782.38
5509.92 4291.89 6282.5 7972.5 208.36
7435.28 6805.99 1147.86 8159.62 5595.45
6112.5 205.923 5739.45 2762.19 8169.62
7452.82 1416.36 6136.46 3556.29 3580.27
8902.05 7748.98 5911.09 1992.27 8876.74
3948.54 275.421 40.8681 1898.56 8610.16
2074.83 9943.04 523.082 5310.23 5437.01
7426.65 3094.42 9899.76 5220.22 6222.53
2039.01 1826.48 3714.53 5548.59 5231.17
3810.83 4695.23 3401.47 3304.37 5252.63
3005.35 2056.11 3167.41 9879.26 4234.82
4152.94 5616.12 8293.67 2131.58 2585.32
8821.22 2135.89 4972.43 6205.34 1288.73
9865.72 3874.12 8600.86 8069.17 5620.96
8217.2 4149.52 8245.46 401.024 1292.52
8574.02 9842.01 2388.44 9290.12 7804.08
6161.14 8171.74 415.863 5995.31 1548.54
4495.53 5728.58 9118.37 6057.74 3722.68
7528.62 4186.03 7416.77 9923.51 4911.65
1545.91 3561.13 572.733 460.881 252.497
8878.77 5167.84 2270.3 7484.05 7736.99
4831.06 8414.3 3910.98 5971.83 840.913
5872.14 1907.12 6778.88 4324.6 7664.23
4120.92 2864.82 9285.82 4340.03 7460.65
3497.88 1401.48 7991.84 8499.28 7426.59
4794.26 7797.52 4534.19 6068.44 864.7
3103.04 6128.7 820.343 7617.69 6464.67
9188.1 9532.19 8748.31 3695.77 8430.85
6803.4 6685.63 9366.4 2084.01 9314.44
5453.35 817.945 9634.28 1033.84 8657.87
6910.4 7340.91 6888.33 9600.16 2886.47
4709.69 6587.45 1907.02 1079.68 4145.89
5833.5 5040.08 2057.92 9740.73 2.30007
7944.79 5983.99 9508.72 5662.31 7473.7
5449.12 157.1 6328.56 6674 4712.95
1279.04 4817.31 438.859 7981.88 6095.86
1808.56 9025.23 6391.13 8617.37 7062.84
1028.42 3833.31 2361.44 6799.1 7159.3
8068.09 2844.27 2877.74 8183.08 8656.4
4960.49 4203.16 2764.94 1983.36 6500.67
3994.74 9821.34 3551.72 647.709 3456.28
4592.19 979.407 9515.6 9624.45 7058.66
7423.66 4729.05 9411.28 7075.64 1148.07
9789.02 5251.71 4215.5 6498.88 3097.77
806.55 4055.9 385.21 2896.93 9092.99
5933.55 4533.05 1578.52 4718.69 4483.87
2155.57 8109.85 5871 4952.57 2890.85
5866.57 3417.9 737.673 3638.26 95.9118
3491.22 7199.07 8771.17 7994.34 6905.97
161.79 2594.8 2234.83 6899.7 5264.19
2857.72 5116.98 9892.71 1215.76 134.614
3715.68 3872.38 7263.39 6676.17 3776.34
5105.33 1170.27 2779.03 8013.42 2590.68
9011.18 7485.43 9420.44 5225.08 6211.37
5321.07 1003.7 2582.03 4821.19 9905.37
4369.34 8647.95 5047.73 280.231 4963.69
6431.18 4409.78 430.267 2090.12 6479.56
8549.1 1353.41 3321.94 8234.82 3620.99
9249.87 7680.46 2415.94 6378.24 7982.59
9442.96 332.79 9496.19 284.499 1359.32
1887.04 386.55 6598.76 7751.17 9591.38
115.486 972.457 1838.05 4411.41 8660.22
5002.73 943.468 4569.89 1717.2 1042.75
7108.38 1362.73 9613.59 8616.53 6231.78
5374.94 5961.38 9647.35 9219.98 5283.85
8175.39 2419.18 6913.09 7241.88 4855.19
9179.14 4543.16 7220.07 6411.73 9032.64
1268.5 6288.35 8336.69 4550.24 3783.32
8071.03 6611.13 2591.78 1550.97 2639.22
777.956 7423.2 726.019 5538.01 8008.71
7411.55 6907.76 6867.62 1368.59 9552.99
5761.83 8635.61 8547.44 484.142 3180.35
1391.6 1005.43 4176.31 4130.36 775.344
2707.37 8122.59 8927.15 7901.53 711.96
4031.07 9334.23 6486.83 1345.27 4136.21
2801.26 2704.41 9669.96 559.129 1792.14
8446.62 4893.47 8682.09 7467.15 1923.84
4227.74 2766.37 257.54 6819.39 1495.35
4487.69 3889.19 7069.2 271.013 431.808
5803.14 6245.39 4989.2 2982.59 1950.86
8665.07 5095.36 7743.3 2982.14 4187.85
3691.25 86.3158 9051.7 5237.66 9148.28
7362.66 9755.77 551.998 1099.63 5039.76
3995.44 4121.68 2124.88 4370.55 7105.02
2394.17 3584.44 9650.08 4586.42 2599.48
7192.32 383.821 3385.21 6962.65 5145.44
679.097 6597.94 1913.77 9875.32 2053.02
5191.21 5888.73 391.76 4673.89 221.877
3430.16 732.524 8612.34 5285.46 166.622
1609.16 5652.85 6016.42 6079.33 9108.81
7178.27 3680.67 1669.65 495.586 3602.64
4418.37 8607.04 6434.4 5814.49 6208.04
409.303 8451.64 8204.7 8635.65 3184.47
3129.77 645.513 1060.68 7200.98 3058.58
9075.46 2299.86 5705.54 4716.11 9617.64
7657.33 100.695 4250.67 1032.02 2713.76
1061.85 3268.66 8054.7 7341.29 3316.14
4321.39 7638.12 9025.17 3695.52 2145.99
1925.15 6445.89 8168.57 2698.25 7173.14
8110.05 3829.77 5884.82 9881.66 1445.79
4762.46 121.041 875.523 8397.71 5352.06
6174.06 7893.84 1251.41 2623.82 3423.76
5663.69 7453.18 3555.17 6338.1 1549.49
712.895 2908.63 5522.06 2778.87 6169.55
5931.33 8234.68 383.714 1209.04 9576.24
5513.93 7601.91 4913.43 5645.25 976.251
5569.01 8005.78 4107.2 7323.8 149.864
330.9 1566.33 2554.88 281.199 7521.84
4070.41 8304.46 4211.08 1225.22 3825.38
3715.05 2755.83 3928.23 2659.97 7125.65
8172.84 5509.42 9225.71 7618.5 2688.67
6674.36 4361.96 247.655 1689.19 1264.03
9982.77 8881.23 5258.66 742.084 969.468
6905.14 5380.61 6765.71 8586.15 1971.74
5590.63 6088.76 9619.46 5039.37 6682.61
6193.65 4089.84 6425.72 1204.92 7602.52
9526.79 5964.71 8179.09 3694.96 6493.21
9442.14 5130.92 8328.52 7145.84 2905.11
2066.39 781.593 2512.82 7802.53 5452.3
8297.94 5243.49 9093.92 5382.86 5706.4
1507.42 5540.36 7427.86 1638.85 7291.82
5690.96 6478.13 5170.29 5765.93 4317.66
6133.35 1459.91 5645.93 5447.17 4572.49
2289.88 9363.23 9290.74 7668.74 6642.39
4369.31 9976.47 5911.35 2827.15 459.909
981.583 6187.84 5044.83 9440.24 3898.15
6328.97 8095 3650.98 8869.88 57.5156
7171.72 7174.78 2633.59 7561.42 3563.66
3057.58 5752.34 9030.5 7555.99 3109.73
8172.27 5312.69 2780.48 3165.13 2075.58
8155.23 1573.67 2356.5 906.874 8173.38
6051.77 8359.1 5138.99 3151.23 7630.97
793.439 9124.46 7516.85 2.55818 7642.47
9359.76 4857.04 476.132 3536.81 988.242
7991.63 1325.58 2746.3 5371.73 378.685
3353.49 4223.16 9840.87 2315.68 933.627
8467.25 1410.52 483.994 1976.63 6689.23
3326.9 318.635 6651.71 2082.75 1287.37
1751.23 6682.13 6573.41 9065.68 1868.22
8190.09 5267.8 9264.27 6282.98 6694.6
1172.42 7730.8 7478.94 3988.66 7851.11
3255.56 829.591 1102.26 6680.78 8213.94
6208.65 6214.46 6689.67 7455.5 424.925
5440.05 2688.72 7528.96 1622.3 396.603
1401.35 8583.17 9488.28 9656.43 1673.64
6321.27 4991.29 1473.24 3592.17 5626.23
8582.92 9360.42 4307.77 2996.07 8367.17
8811.57 6026.98 140.869 5325.21 1556.71
3870.11 7069.02 591.974 8544.84 8236.29
8151.32 5836.21 1983.01 8368.4 8854.21
9121.62 9842.54 9607.04 8613.83 2404.43
4053.66 6014.11 5553.36 3634.92 5336.39
7263.99 3367.7 7937.26 9746.64 8319.54
5501.19 2949.67 19.1118 5897.45 4530.97
9022.35 4560.96 9725.31 7093.12 5244.17
6210.11 7482.23 5449.31 1984.08 8815.81
4986.31 6405.43 8207.12 6833.25 1546.2
6531.26 6480.01 9529.51 1922.84 3536.06
6436.49 9375.88 2596.68 2846.53 5016.2
9659.74 4183.4 2496.16 1710.95 5512.8
7789.65 9547.94 5031.75 6618.56 2140.9
3791.79 3294.78 1109.22 6673.3 3167.71
7015.23 142.435 2219.47 5799.67 2817.64
9620.79 778.179 442.075 2757.99 4479.97
9318.84 6665.42 1941.22 2697.06 3729.55
7823.32 2314.48 3711.25 6769.08 1376.34
4063.39 5520.57 4538.25 1549.62 1605.28
9576.03 3232.62 2412.32 1624.52 8369.88
1631.52 5901.09 2637.31 4644.23 8850.97
7412.59 504.221 617.372 2653.88 3297.03
1397.27 7259.44 8085.93 122.977 9276.83
2798.8 4189.52 4508.14 2856.23 6156.09
8039.39 7291.21 1655.51 2642.95 838.462
8041.9 773.459 9571.15 6179.52 3288.06
4107.48 9229.07 9956.75 6468.97 2995.93
97.3289 9753.74 980.973 7221.96 4307.04
1373.23 1615.34 9758.65 9742.68 6624.11
3535 1603.3 3681.05 7833.9 4092.73
3581.96 3103.92 5772.85 974.172 4600.38
4480.97 41.3981 3439.51 2813.17 6265.49
4592.5 4546.59 5466.82 3517.79 6310.18
378.032 4338.03 151.459 1100.75 8415.1
4685.12 6657.78 4587.36 4609.99 4308.2
3679.36 2473.29 9760.22 4316.93 2592.1
2709.56 7273.4 46.994 1973.25 1592.1
9679.59 5213.35 7229.1 879.683 885.433
4237.75 425.809 2606.75 7286.8 8903.54
3843.73 9976.35 3957.29 2606.08 1747.31
440.607 5013.64 9981.28 7900.96 7078.21
9162.85 5782.07 891.182 2017.84 6110.64
9290.62 1263.69 1945.63 8441.7 8714.58
6405.76 4962.13 1232.33 8390.73 1206
6819.33 9963.65 1107.78 7590.66 5975.75
984.986 3234.1 9599.08 3919.76 933.324
7230.15 8206.58 9330.8 7172.2 7271.09
5531.44 5129.53 2387.16 690.097 1502.81
2606.42 9186.24 3344.99 9277.35 6870.18
8379.76 7572.28 859.448 6577.83 7734.55
574.508 7242.46 5432.45 9926.39 5722.98
2169.3 9469.08 9527.08 2120.39 1030.03
9280.51 7697.52 6221.57 7984.73 5321.53
8548.65 9181.35 7942.23 1959.29 707.664
3236.64 6479.82 870.756 7543.87 1687.07
7839.65 2300.07 9211.55 1372.1 446.005
1561.44 9094.24 1273.98 3853.28 4870.33
1326.74 953.888 8683.57 6025.31 101.259
4798.52 3921.15 3335.33 7492.7 767.514
1865.15 1980.11 5601.54 4573.79 7664.78
807.067 2845.35 1384.77 4699.44 6974.93
5960.39 4791.58 3371.61 1111.32 189.05
5659.61 2418.26 9894.66 5953.86 3664.79
5331.31 2760.48 9857.98 9659.93 5399.68
5545.25 1867.2 9394.94 9382.26 8565.2
835.657 9401.46 4298.43 5265.51 3203.46
7904.6 9708.16 2913.27 923.279 1555.37
609.85 3810.13 9705.94 3284.39 6677.35
8968.17 9754.72 482.777 7038.58 5442.59
11.9173 303.548 6017.96 6012.91 4500.29
2526.11 3901.73 2164.19 9331.47 5952.67
5034.52 9051.71 9926.6 9864.99 2001.92
6276.3 7215.66 5953.73 7124.5 3433.26
652.492 9684.23 3025.46 3571.34 7347.58
9193.88 8932.47 212.974 8040.63 1536.75
4239.87 8506.08 5974.04 4349.42 4289.31
3450.64 2187.27 8229.61 4594.62 8711.36
4870.05 3539.33 7527.22 8388.97 6629.08
2061.07 4340.71 7522.73 7882.57 4902.36
24.3986 6888.99 448.701 6628.49 4930.22
8414.23 2513.13 8756.91 4665.31 5830.68
7359.15 5474.98 1756.53 8798.97 490.426
992.413 4008.31 9828.42 7546.49 8882.27
262.664 677.689 884.886 8271.22 5659.77
2360.69 7939.08 2632.91 2337.04 800.842
3960.27 4163.22 8446.4 3865.39 9123.52
1308.76 1517.96 601.882 4252.27 5007.54
5352.06 2649.04 9989.85 8179.6 1016.53
6238.22 4064.6 2248.9 8960.21 6136
1260.42 5147.91 5437.98 9467.23 2051.39
6750.95 3979.77 7921.75 6333.33 4481.79
574.883 1378.49 9957.26 1074.74 5692.45
893.996 2423.07 2667.17 1185.06 2898.67
437.587 5781.24 2003.84 5832.32 6614.42
2176.74 324.853 7051.73 9000.89 3794.85
2669.04 217.129 5704.61 9839.32 5854.87
5620.87 6663.53 7165.3 2127.72 7910.03
8629.93 5917.01 2936.2 3824.58 603.616
8736.33 6299.69 56.3066 2122.87 5725.63
5777.37 8162.26 3051.72 391.764 9166.54
8671.67 5351.51 6982.35 3775.23 9022.93
3090.56 3120.6 6551.06 9394.95 7766.86
2880.81 8124.53 2090.73 894.586 86.9004
1776.55 5782.49 7904.28 7232.09 8792.9
7490.09 685.47 6116.81 4957.71 6631.48
5191.15 2522.65 6120.75 6713.38 227.11
7542.63 1141.61 3697 7370.3 1314.34
256.697 6516.93 7234.97 8250.37 8373.48
9181.94 9997.6 6525.17 1736.67 2334.47
9373.67 4778.9 5733.69 4023.99 4432.88
4222.09 115.065 7701.12 3065.26 714.298
7638.37 6228.43 8818.62 5247.87 2822.64
7272.78 1422.71 994.875 3286.43 5096.08
7370.5 1273.97 8400.41 1959.34 6446.19
1523.79 5367.61 3731.38 4117.39 6455.97
2415.29 3054.27 1622.77 5330.54 1698.61
8242.26 1814.74 7684.87 1803.52 7736.06
3657.21 5604.7 1267.04 9606.5 8836.74
660.395 6003.16 3357.36 9885.55 5505.57
3336.13 6887.33 1289.73 6324.52 5891.68
5458.68 7018.86 1094.2 649.824 1308.57
1903.39 8489.55 5922.4 7779.58 9908.33
2219.33 8226.09 4316.96 1629.83 2195.16
5397.44 6296.25 1977.83 1108.46 9486.58
2285.81 8038.74 4978.14 3350.35 396.707
3981 1029.59 5462.34 6172.67 8310.89
3762.27 1984.04 3140.36 5600.41 7930.93
1827.77 2833.96 9285.8 9335.9 4468.23
7785.97 6648.17 121.201 630.696 4076.01
2887.69 7514.43 1970.74 5650.7 6387.27
9315.6 6407.12 2082.57 5014 9103
837.076 9381.66 9174.22 2921.63 3538.9
1654.36 5579.58 4943.88 2716.32 7077.72
9586.83 8050.73 9441.39 6717.66 4519.05
6872.27 4.68231 331.837 717.222 2888.08
9816.22 9035.12 3818.85 7324.71 6639.06
9031.28 674.974 9523.51 631.829 793.167
8742.58 8208.14 1026.12 2096.43 6029.79
3194.04 5445.14 7318.31 3824.5 3440.63
4850.21 1973.23 2286.43 2936.94 4295.11
4644.71 419.744 5349.5 7620.83 2941.56
7032.44 2249.29 6375.85 944.826 5606.28
7286.05 5839.32 3120.05 9429.74 7983.46
4297.13 508.793 7160.07 2950.47 1956.65
6076.89 7158.48 2245.64 680.39 8451.93
1894.47 2671.32 954.5 4748.08 7504.39
2632.46 3411.03 1270.07 7095.11 6717.48
2470.43 4971.79 2049.79 2206.06 109.993
6110.62 2956.27 6862.8 5380.46 1578.9
2773.61 9302.67 3095.59 8132.01 4226.49
463.574 6264.51 4779.84 2289.37 5756.28
8062.62 7627.83 7064.62 5094.01 5806.51
8329.35 7021.47 5718.88 515.832 4417.25
8547.6 9586.58 4319 8307.54 5121.66
8469.87 7156.72 1065.01 8440.17 708.661
310.015 8793.62 7436.84 9512.51 6281.32
8888.86 5399.53 938.306 7644.35 32.9048
5120.42 8584.75 2338.49 9531.3 4442.27
5035.24 2482.29 786.13 3853.55 9279.69
7901.75 6497.32 5042.64 6955.94 9276.34
3394.59 9648.37 670.13 5598.38 8796.04
776.517 8008.56 1350.96 998.506 9713.07
4348.85 5030.22 5010.86 8831.05 7007.4
7953.42 2642.2 7778.03 8602.65 7850.64
4393.13 2807.69 6016.52 4888.05 9359.34
1371 4538.8 8013.01 1582.34 5533.38
9721.34 9310.68 5131.16 2626.12 9551.16
8362.7 5750.52 1525.79 4144.96 4629.19
6761.97 2297.74 3009.97 2049.25 8708.15
9113.33 4781.28 9122.71 9928.32 1076.73
6390.06 4867.23 500.958 3555.05 947.148
4635.02 8753.93 25.3449 6524.74 4664.51
368.306 2316.17 8089.81 7761.46 8520.59
1127.13 9657.75 8990.01 561.321 3249.58
3844.15 6523.28 4452.34 9136.13 158.459
9696.81 5377.23 8886.74 7848.78 6914.79
9440.27 8262.33 7981.07 2227.81 6180
417.113 6693.19 2937.87 7637.3 1380.28
5954.72 5133.18 3292.17 7609.63 815.91
2041.96 5527.44 8340.43 5189.57 2819.14
9605.44 2459.88 6569.05 8884.98 2388.45
107.741 4234.46 1668.97 607.106 506.78
2031.59 3976.3 9747.12 2044.8 6441.55
2740.54 1985.84 9232.02 1741.6 3347.56
3429.23 3682.66 6705.68 1330.1 8047.99
3170.93 8712.74 2496.59 7201.5 2310.09
9971.87 5745.16 9445.15 7210.8 1441.58
6168.76 3383.13 6017.18 3575.85 5589.03
5770.5 9550.82 4382.97 3697.28 8516.97
5361.29 6475.88 5531.64 6293.97 6370
1828.02 8703.93 3269.48 4390.54 3700.51
9667.28 1674.96 5653.71 1448.4 295.992
4859.62 7273.94 3959.25 5273.73 9493.11
7294.85 3376.05 582.513 1192.38 8254.24
2590.3 8005.33 8674.18 5563.33 5287.96
7512.46 6273.53 1131.15 7466.29 6700.42
6928.64 2778.5 7450.99 2343.86 2512.16
5423.72 6918.72 9714.29 8531.91 5214.27
7745.84 4593.75 1293.64 484.933 8081.6
3075.5 2379.11 9898.38 6107.87 6448.45
4120.62 2339.21 7377.97 3793.42 8400.25
2392.54 2707.85 4610.75 9292.72 5120.99
6124.55 4618.62 5810.81 7516.45 8934.81
6880.64 7380.08 7030.1 1374.67 355.116
2589.83 3710.61 3714.63 6221.21 6035.33
9072.21 736.904 8523.5 6330.09 4473.25
3033.11 4967.91 9123.54 7118.11 831.344
8005.46 9487.1 5257.05 4010.57 754.181
9584.26 7375.82 6083.33 6272.21 2270.9
4731.4 6996.33 351.569 5313.84 9226.55
6105.33 5736.7 2154.72 8833.63 4984
8240.07 649.813 9212.58 2710.45 2481.43
8046.49 7258.61 5503.27 9991.26 8576.61
843.429 5903.23 6934.01 3540.14 7939.54
3028.1 1795.28 3950.64 5234.56 9228.24
577.262 4708.81 7646.74 7274.04 9687.26
2358.07 8666.52 5176.2 1855.95 790.977
1544.78 6010.55 4800.77 232.094 9024.52
8510.19 2980.05 8295.33 2972.99 5535.18
4476.84 3670.88 4612.3 1981.76 4574.53
4057.02 3923.88 6481.59 38.4069 6439.85
5468.24 7064.44 5714.83 490.853 8370.21
4341.21 9137.5 6217.67 996.002 5111.37
6310.93 4329.38 5255.16 1973.2 8219.56
3480.61 9645.59 4646.32 5527.69 2825.78
6570.75 8059.38 4953.33 9110.25 6686.92
6377.36 3952.12 6034.06 4328.09 3724.47
6766.77 3922.43 5132.75 3613.5 4289.14
2504.8 4221.15 4402.92 940.544 574.8
1348.9 7711.57 3062.83 8722.07 2999.42
903.754 1554.12 4473.39 8726.05 5552.32
1102.27 9769.71 9567.65 2122.08 4371.43
8757.39 275.868 5276.51 2889.49 1987.36
2002.36 1769.16 7410.6 4781.28 6625.26
4392.15 4576.69 1081.44 2563.14 5884.57
7869.02 7508.66 1389.89 3892.26 6917.69
6415.37 8088.58 6003.1 1368.9 2321.85
4972.37 5823.56 6120.35 9277.43 6285.54
1525.6 2931.83 944.608 9078.85 6893.52
648.578 9214.55 1123.34 6538.51 1178.32
1834.81 4865.15 5019.77 9487.14 707.6
1457.6 2474.76 6540.99 9400.4 2124.29
5321.76 8284.24 2851.73 5544.16 1389.84
1537.78 7884.92 4115.14 4752.7 4448.93
412.827 7455.2 70.7195 3997.74 7682.87
6367.51 3517.2 6273.07 5933.67 6914.03
233.922 3728.56 1598.99 9949.68 7351.4
7667.26 1914.75 2292.77 8387.8 6903.49
7286.51 8905.33 8416.36 4902.15 2848.2
6484.77 4025.64 1247.88 4017.98 8051.5
237.785 8269.19 8020.86 4929.23 4240.58
1585.9 9329.53 6415.96 3518.44 1209.08
7696.99 3652.9 9976.22 3939.1 3409.47
5699.1 7992.66 1008.64 575.324 2304.65
7229.02 7005.34 2851.6 6790.21 1228.05
8287.17 7583.49 8940.84 9569.77 1439.07
7363.53 5133.53 2746.76 7921.89 549.385
8436.86 6264.58 6164.26 2019.19 7674.94
7658.03 6387.48 4434.73 2134.76 1447.64
1241.5 9525.92 1513.13 494.713 8448.43
754.4 228.977 7836.45 8660.7 4464.34
3249.9 6828.48 956.994 1062.76 410.151
8086.7 9837.53 4792.58 4410.57 8551.37
4899.98 5149.08 2899.49 4575.52 9513.57
1833.2 3476.03 423.799 1556.22 5710.63
5921.01 7772.31 2866.62 1596.06 5552.54
9702.11 761.351 5404.51 4802.79 315.246
3271.7 9224.2 1056.11 7729.98 9017.58
6027.24 9859.63 3077.8 3278.34 1438.4
1627.33 5355.14 7855.59 4301.92 9321.56
6778.37 4341.18 8957.09 4706.55 8023.01
4036.97 408.245 3157.19 2053.83 4524.07
4344.32 7378.14 9477.78 7599.72 6087.79
4010.18 4282.55 1300.36 358.654 5505.95
8166.36 4410.15 8649.51 4527.88 6018.66
3916.53 6367.63 5580.35 2332.65 6678.9
9911.03 1360.02 2580.47 6649.32 9061.51
8914.1 5731.63 2235.18 4019.98 8715.32
2082.8 807.548 8518.12 2496 9652.18
4036.36 6421.95 6326.19 3587.72 235.968
8867.6 9017.98 4515.27 5970.42 3943.42
6392.81 2019.26 190.406 2917.55 2370.57
1665.42 5863.73 2441.38 6841.11 2361.99
3406.34 6856.17 8782.25 9069.41 4167.63
3120.54 2676.55 1718 406.418 3380.14
1624.45 3725.93 5342.39 2198.67 6135.51
5388.26 5600.86 5830.39 4985.45 587.727
733.645 7988.78 5688.34 6962.08 440.778
6391.37 5765.88 6865.38 386.514 4760.19
7621.33 9195.13 9922.37 2099.07 5587.7
8918.48 5272.81 4489.28 4896.92 8266.84
3819.3 9848.7 214.973 5771.53 377.63
769.426 8658.83 6386.53 8698.22 2068.59
668.79 8286.75 4088.73 5845.3 3927
6091.22 5568.89 303.289 3197.22 6555.95
8417.25 5822.11 9437.54 4890.79 9545.57
742.215 6702.16 799.176 7855.62 5651.54
5304.91 2933.31 9968.9 629.845 2018.22
6260.12 7332.85 6939.3 2905.54 9312.19
2832.46 5828.51 5737.48 2250.74 9031.18
6670.84 5535.74 6448.13 3269.18 2918.76
886.411 3460.36 1878.95 3446.02 147.519
368.152 610.327 9079.96 470.585 5338.06
9899.4 9976.18 2516.03 7844.14 5202.21
4212.7 8099.6 4718.55 5748.34 4430
9419.54 3090.17 4910.5 2180.98 5795.1
2045.8 2574.24 6226.98 1934.99 6665.26
5726.28 7212.89 8520 919.76 223.991
6704.11 5515.45 6747.48 4366.09 4182.53
539.031 7271.16 2528.51 8877.36 670.671
5279.28 1644.02 8603.08 3466.02 6582.69
8435.21 5599.9 5003.07 1444.16 3538
442.2 1950.24 6097.09 3943.21 7729.82
1049.81 7620.78 7890.69 5667.76 5364.16
6722.77 1693.86 7348.01 4578.17 6200.54
6336.56 4034.02 3372.44 2761.09 1263.05
8631.66 5132.03 7374.29 1754.94 1209.87
4892.28 5662.95 925.52 5320.83 5374.77
463.496 2835.75 4162.9 9529.31 1200.67
2801.08 9605.94 3514.1 1755.47 3705.19
6713.54 5549.26 5347.94 7316.6 3090.53
3091.45 3017.66 8795.44 1114.07 5542.33
6793.52 5997.24 2295.58 3134.08 8056.87
8352.44 8696.05 7370.58 7370.61 8042.44
2584.4 2887.09 259.406 3202.24 471.3
4244.98 3968.78 8356.33 1777.22 5072.82
7412.68 970.458 8579.04 1662.23 4071.5
1998.92 5834.55 8075.48 4720.58 7128.36
2578.4 4476.11 721.987 3202.59 7370.56
3638.72 6107.57 6129.87 1897.35 6357.71
5032.34 9214.15 6181.81 9671.61 2628.23
7673.13 9141.49 7090.09 8745.72 9123.4
1852.08 6130.62 1286.54 8986.34 3408.84
2065.16 9538 4940.25 3755.65 6689.37
9282.34 5326.68 4668.49 7300.38 3158.97
355.474 3271.86 1977.93 5662.33 463.232
3082.62 5805.91 8619.46 6779.62 8865.85
614.841 8055.62 1956.31 440.26 1410.33
4385.25 3903.94 2310.18 5742.89 5689.3
5740.67 4029.88 2341.66 3859.27 2496.96
5297.83 3942.67 2600.05 8048.89 3822.27
3907.35 3460.15 6315.22 7486.72 2757.4
6376.13 8872.29 6871.31 8819.94 5482.01
9297.43 7850.01 8084.45 983.715 9541.79
4556.9 949.889 9010.82 7478.17 9128.21
1623.01 4233.78 7726.15 6974.45 2860.07
6769.36 1580.25 7055.3 2456.62 359.587
3534.95 4668.2 9447.24 4288.64 1036.53
2011.6 1009.67 7227.67 5500.14 3950.12
8830.54 1310.89 9784.13 9573.6 4176
3323.08 3376.62 9802.2 7673.87 4771.92
3309.24 3950.32 1321.51 2688.2 1589.97
4882.67 3196.5 364.161 6027.17 4599.29
7300.26 3561.71 5596.89 3472.7 5468.39
7217.35 4645.9 2202.52 6293.25 2460.79
2039.93 9110.17 5807.57 389.759 1632.96
2791.73 1279.67 6771.39 1561.35 5307.41
2193.1 2249.73 6278.71 687.594 7576.61
4448.65 504.41 2558.68 1506.22 5675.17
2946.52 2613.38 2435.03 9926.38 1451.44
9128.51 1588.07 6471.1 5311.67 3037.37
1834.05 3409.86 4618 9593.52 5383.18
6850.75 6753.32 7743.61 221.789 9412.86
6445.5 7187.13 7802.28 8514.71 6679.96
1568.12 6134.02 7761.5 3870.41 6926.28
4394.71 7905.4 7850.28 2943.79 4296.19
2317.53 9180.07 9542.88 9307.45 5655.35
6516.61 6069.78 8278.74 9968.95 1361.96
6633.95 1983.38 8131.36 895.384 4770.42
1156.58 754.2 2617.99 4730.51 4023.52
6664.56 8310.81 3307.85 9688.55 1600.28
6433.72 9410.89 4812.29 7071.58 6966.05
8400.35 7021.83 3497.79 7371.85 3037.17
9911.87 6949.01 5526.9 4872.78 2730.23
5944.48 1151.52 2059.74 8110.1 5101.28
7979.9 4767.93 5070.26 3942.03 4910.9
831.308 8785.38 6553.06 3758.18 5315.97
8776.53 8651.34 8467.36 9690.63 2860.37
5408.47 99.9036 1916.44 8959.08 969.042
1391.73 9189.63 5809.51 14.9028 8090.37
6885.75 3627.18 8157.79 9554.9 9576.07
3405.81 7135.89 7684.51 7535.44 6427.84
1980.04 8330.21 6362.8 2570.24 6184.63
102.85 1809.98 798.492 6680.32 2299.17
3315.32 6727.14 3284.43 5791.63 1920.08
1334.51 7951.06 3020.63 4275.9 1705.81
7033.77 8871.98 7981.24 1515.71 9996.44
2008.44 6698.84 8943.65 178.871 2907.41
2439.08 629.353 7327.8 1420.17 3513.77
9501.36 3447.27 8543.16 2244.74 3217.97
2740.96 7421.12 8564.68 8642.23 3960.73
3513.72 7491.3 9461.45 7439.49 8145.67
9782.49 3960.08 2805.66 2800.15 9836.49
2161.73 6137.85 579.369 9800.45 7485.56
6511.56 3637.45 101.181 6429.8 2171.01
4130.73 2705.46 3058.52 6489.83 2281.62
2156.77 1899.46 9066.04 4987.44 915.325
2564.32 4940.22 87.9102 9277.3 3309.34
8215.25 1904.24 6753.55 5194.84 8572.66
2309.72 9357.27 6603.61 3938.83 8307.57
5449.47 7048.55 7144.26 7910.46 9785.52
1229.23 6319.08 3174.44 8319.52 3568.27
2874.13 3069.66 2630.2 2475.89 6837.45
3657.26 3926.68 7343.92 8679.46 243.757
4255.25 4669.37 2275.86 6632.43 9843.84
4962.73 6874.56 887.071 7451.11 8992.68
3382.38 5043.66 383.27 7348.64 5194.11
1824.77 4817.15 4809.04 1877.8 4246.42
6521.64 9690.3 28.109 5218.3 7630.06
4326.55 9378.48 9069.51 2396.21 174.521
7266.04 1746.28 5255.19 597.542 8141.63
6639.14 2126.64 3980.35 9225.11 920.225
1503.01 7797.14 4136.64 5541.41 5924.42
4563.2 8659.61 1976.4 3446.55 2782.64
568.04 9426.93 9547.15 5922.32 4015.58
9937.53 1491.7 9808.26 9366.41 5587.8
4717.21 5724.51 9342.34 2735.16 404.096
4418.39 3201.13 3802.53 4009.19 5281.34
7743.38 4108.59 3337.55 6266.18 3892.44
767.365 1982.74 7399.96 5864.36 1521.01
9908.4 2656.85 6910.97 1560.67 6192.42
608.329 8911.56 9439.07 7741.47 3400.64
6747.01 6909.91 9829.53 8807.56 7201.88
6335.69 6234.72 8667.71 2041.64 6708.42
9037.31 3233.6 1743.2 9768.75 292.803
6055.54 3710.29 6442.63 7840.14 7443.18
8010.92 4919.96 1120.51 5049.28 8462.16
7069.27 6028.13 4093.4 7999.56 9712.09
2453.88 635.319 8704.7 8454.53 3091.93
9424.09 9463.11 5796.45 7787.34 7380.15
9731.61 1942.05 1810.9 2377.89 7978
8229.82 2918.85 1859.85 3467.1 9560.5
1098.08 4343.24 7667.08 8817.31 9810.6
3901.85 990.954 311.739 8580.37 9554.06
1371.69 5056.78 3745.76 6730.8 2965.18
9405.43 7087.38 7276.04 5340.88 5007.75
4916.5 7631.71 6776.21 1192.3 215.096
1538.92 4132.86 774.57 6275.59 4855.73
9133.86 9391.13 7557.7 7183.24 2610.67
8460.56 1525.77 891.721 6193.26 9091.7
9583.31 1527.97 2011.08 3824.64 8137.54
3546.25 2250.72 27.9438 3472.61 8238.03
3574.47 2385.64 5975.64 5520.39 825.368
6917.89 6102.94 1736.29 4736.97 811.756
3662.45 1961.87 3876.19 3883.48 3841.84
4908.53 1404.58 7752.95 7088.85 7642.37
4696.24 6710.43 2859.28 1758.93 825.485
3403.51 3088.73 9881.57 1945.55 7728.71
7106.77 4309.86 3648.34 4424.17 7829.52
8602.06 8678.6 5498.84 8319.95 7758.88
3786.92 7831.8 1301.56 3426.65 6267.78
9507.25 4265.51 3123.36 2662.19 291.037
6491.94 496.759 5287.48 2380.53 1536.7
4127.8 6959.77 6406.95 6171.26 2019.94
1337.73 792.247 9314.19 8443.78 177.115
9362.85 6614.48 9141.27 6111.45 2198.12
467.526 2209.7 1937.36 4729.82 2715.63
5293.79 9953.5 2600.17 9217.84 1199.12
8274.03 5465.22 4522.88 6471.85 356.66
5563.65 9984.37 4388.93 5373.46 8883.58
9926.1 6998.79 1124.69 342.538 8064.08
8266.23 5831.64 8990.37 2396.93 4480.87
3053.99 9077.11 60.7177 6456.87 9163.41
9928.69 8812.71 6542.25 7138.13 9566.23
7152.83 9599.09 9781.75 4731.18 1528.19
4926.14 7663.82 6271.19 8004.15 1014.68
3975.57 7937.56 108.568 5691.52 3274.72
2251.23 2990.32 1156.96 368.538 2614.76
3521.01 850.262 8819.86 4214.1 3245.21
9204.33 2921.62 1456.07 7812.76 1703.86
9814.41 1347.85 6147.69 1497.64 6463.04
8894.7 9034.81 9232.35 7715.57 442.289
9913.73 5767.57 3457.34 9746.36 6064.88
2627.61 3798.82 9708.49 6792.09 9239.9
2701.6 6653.38 7685.49 6574.85 6781.56
4444.32 3595.12 5083.16 9210.78 4306.95
1936.69 4714.82 2223.6 4191.61 9900.46
76.1919 7980.62 799.686 7373.03 254.909
568.502 2772.91 6484.43 6287.21 9750.88
7603.85 3499.04 3728.07 1824.31 5432.33
2646.14 6532.28 4322.24 6413.33 9228.25
1735.5 3528.28 1111.9 3469.6 8594
9058.33 5874.41 3838.87 7815.3 5101.68
2878.9 1043.49 8433.5 9605.67 9670.74
8344.58 5486.99 7709.09 6399.88 8530.03
8273.06 3671.86 2242.5 6954.14 2487.18
6725.96 7560.71 7137.91 9092.2 2671.97
9062.24 5448.33 2546.23 8972.65 9558.61
161.383 4358.7 580.484 9880.11 205.209
388.009 8732.08 5207.08 9848.14 9698.66
1013.83 1394.18 6115.73 6348.44 7497.82
9793.13 9962.44 1243.35 9299.99 4856.76
2737.92 6532.26 1612.21 2709.93 7970.17
6309.95 6952.63 4097.72 8155.41 7615.02
6179.5 1112.86 6488.5 5177.87 7751.55
7665.48 8482.66 3420.24 2370.43 5964.66
2046.71 9799.46 9689.5 4396.94 228.445
6339.24 6403.73 32.4602 5323.6 8632.81
835.394 980.825 6957.5 1780.37 2446.06
5957.42 8826.52 4307.34 7854.5 6061.59
3197.83 9816.56 5145.97 7169.83 3249.24
2132.88 1619.73 2002.53 2743.34 3013.78
9673.02 1955.84 566.171 9772.03 4431.5
2438.93 2782.72 7490.43 6554.44 302.238
102.77 4055.98 2180.5 4975.97 3721.71
5318.39 4893.87 5537.62 5980.93 9430.67
4899.76 8131.68 2899.42 5058.53 9105.13
1652.54 5937.44 6444.02 5768.84 2527.25
6314.69 5332.15 3941.79 6734.57 5792.96
6884.31 7705.99 5546.58 685.046 208.91
3165.22 3179.3 5838.85 5704.62 8171.67
6691.23 8077.91 9062.73 5251.9 5524.14
2116.02 7152.72 7787.7 6701.8 1565.38
919.116 9015.19 2984.31 4228.84 3124.99
3245.81 3562.63 7048.52 3482.38 2561.71
5032.23 4571.55 3308.24 5875.86 8587.01
6880.53 4696.43 2761.72 9647.24 6035.86
9339.67 705.192 5970.8 7486.15 9535.59
6884.24 9028.55 6008.14 2135.77 2156.2
7393.87 6378.66 4495.62 387.101 7615.37
5905.06 9870.53 6084.45 6194.53 5077.42
8657.16 6960.26 163.687 1915.39 7988.27
6384.78 5957.88 2797.78 2087.71 1558.83
8822.28 5919.04 7266.91 2575.26 8152.14
7535.98 3741.45 2716.74 5084.15 8904.22
3305.13 2385.93 9424.19 7753.12 1989.14
4600.11 5928.14 2353.82 3785.33 9556.64
1740.87 1697.98 5047.69 7463.84 6603.31
1221.87 2586.7 1077.61 6100.61 1602.2
5105.31 9968.63 3912.14 4564.79 3055.71
1351.33 3053.84 1556.24 2018.32 4403.94
6260.5 7111.55 5938.86 362.163 5689.88
190.64 6981.2 3829.78 3891 678.578
5096.85 4382.78 3913.57 9087.39 2556.49
5994.26 4046.52 5209.81 510.371 136.099
6228.47 8266.21 1354.72 2249.91 7811.51
7446.84 7651.27 182.685 7913.86 2124.81
6386.64 355.872 5222.17 3544.37 1870.79
1609.91 2601.88 9584.99 8860.73 6261.59
7640.85 9752.03 9303.25 3585.38 8466.54
8957.82 6205.73 8817.63 8429.61 8869.01
1063.39 1010.12 1348.62 9560.52 9224.72
2679.57 1082.2 1886.04 4847.34 2479.16
6542.83 3467.52 4174.92 2479.43 4275.64
8373.93 9721.34 1604.68 9325.11 857.449
209.643 2623.95 2203.78 9723.66 9624.19
8821.8 9959.85 7496.72 4123.01 8624.29
5350.46 1195.48 6626.21 5202.56 4201.86
8924.49 9691.47 3495.3 388.29 2800.85
5402.36 960.272 6703.28 410.305 3630.02
4940.52 1467.99 4624.38 6777.66 7371.87
1869.86 4105.81 2690.12 6774.12 1707.54
7808.52 8685.55 9945.75 6284.95 1942.61
9755.32 4860.37 5918.34 8902.16 2252.27
8870.17 3321.58 6687.69 169.29 6100.86
3575.5 1248.13 6319.79 5298.08 7175.71
1482.59 348.757 8095.64 488.282 1071.87
3142.74 1466.07 193.744 4541.93 657.852
1141.06 6742.96 6851.19 820.07 8772.02
2557.69 5407.28 977.983 5877.52 7820.75
8690.74 6030.96 9703.79 3240.05 9307.4
2213.67 6281.23 2080.75 1399.55 7685.89
1187.49 3379.03 8516.01 3477.27 1355.31
9741.52 2240.76 6730.77 9744.55 6043.46
7899.39 4850.72 1386.89 7897.44 3441.38
6098.36 1810.41 2255.57 8407.27 6233.11
8345.56 8969.47 6915.44 4435.75 5274.65
9881.31 45.0992 4865.55 9920.2 5968.42
9659.46 9083.34 1899.28 5398 3776.1
8177.05 9817.57 5804.44 2560.24 6046.96
9246.16 7106.05 8639.92 4558.75 8042.82
9431.56 4093.45 6393.4 733.041 5507.89
8402.18 6322.38 1165.78 2547.97 4745.35
3480.62 2663.36 7092.51 5480.06 9846.81
5779.29 6345.78 1985.46 3298.74 5350.96
3099.1 7241.15 8500.08 9847.4 7013.03
1204.28 4597.86 3508.75 6977.03 4574.42
2019.65 5755.04 5125.6 1979.97 8662.98
6333.68 6283.7 7282.84 8970.16 4071.65
2521.1 9108.6 1586.48 8242.27 8626.82
5775.97 2531.89 9738.24 3832.99 3047.08
7365.52 6141.68 2752.94 4830.55 9786.13
3513.78 915.679 6902.26 7588.41 9274.14
7796.56 6412.31 4265.89 1676.87 7107.17
1640.15 2453.66 3946.42 6256.84 2440.92
8043.58 8317.63 7082.91 6633.65 1705.18
8884.75 4495.11 6283.53 7856.13 668.172
2477.47 2973.13 7317.03 8212.56 3137.59
6602.77 823.809 2119.93 1446.44 7240.77
2857.03 2305.5 7986.91 1079.95 2178.28
2856.52 6892.48 6749.64 8571.38 5263.44
8143.86 3686.12 5473.84 3865.59 5887.63
2595.99 8930.33 2691.41 5268.83 6394.74
1613.44 7080.06 4642.34 9947.69 7474.2
8149.35 7107.74 6320 6037.16 5126.92
2532.03 8273.42 5833.25 1674.14 5532.96
8335.65 1270.26 1820.55 3082.84 1389.95
9898.68 2458.21 2085.94 3986.19 4703.28
3083.35 7032.18 4083.25 7897.38 9775.64
3708.75 6849.85 6062.99 5307.29 7382.48
8478.78 9619.86 8852.79 8585.48 7248.05
8308.86 1097.62 6.88851 1477.33 3020.98
3821.45 7015.25 2517.15 9653.34 4218.88
6433.43 8587.53 9805.93 4668.35 1002.21
2552.02 3775.68 3532.14 2272.64 3465.61
9143.78 7955.29 7905.54 8810.4 7324.82
8950.19 809.86 8298.46 557.238 2905.06
4300.01 4929.83 5192.95 9963.71 7233.16
8275.02 5393.17 9572.57 5649.98 6951.39
6294.91 7610.12 2846.42 9398.08 7411.97
521.367 9560.15 1110.53 5377.82 1639.58
3766.98 8889.58 7421.22 665.494 7934.11
7221.23 1395.38 110.024 8079.61 7216.38
8582.63 4876.26 2794.25 1569.46 5656.88
3287.72 3532.28 5975.33 5254.4 5989.24
5955.88 7934.23 1274.29 2527.24 1510.47
662.909 9369.5 5893.89 4689.91 7324.83
2394.82 7.50063 4859.18 1755.94 3522.87
7225.99 2494.16 6514.03 3646.61 6660.6
2443.96 2441.27 1337.51 4002.74 2546.48
366.38 2424.24 951.991 353.294 2203.5
5746.46 3063.52 6132.61 787.763 1433.26
4235.75 1222.43 8668.08 8058.91 3817.97
8721.91 4865.82 8521.94 3740.95 6292.99
6445.26 5166.15 4619.33 6947.88 1262.47
4635.89 8298.71 4239.33 884.947 6344.42
5491.89 2796.28 4977.84 5838.02 1252.29
9051.38 6933.96 7167.83 4979.76 9772.5
4520.96 7721.35 9637.91 7835.02 1927.4
6344.74 3868.35 9793.18 9880.57 7837.22
5723.63 3288.14 1500.42 9127.45 9525.48
7510.44 266.401 5370.96 2008.73 5972.54
1130.2 7472.45 2398.25 1670.39 2779.84
9139.25 3159.91 4309.06 990.404 9740.64
6860.09 2643.25 3308.39 7775.96 8208.66
6743.98 2159.42 6036.69 9611.36 1356.18
7173.01 371.732 1932.49 7829.53 3307.23
7805.58 5270.28 6204.88 7252.69 6399.98
6711.92 6442.58 7009.56 1242.01 2872.54
3689.28 9798.53 3153.18 5601.66 445.838
7620.18 4490.42 9751.54 3077.33 7022.12
8156.73 3569.1 9110.05 8772.19 501.714
5392.76 5680.1 8307.66 412.952 2973.99
525.444 6935.56 8715.33 3167.8 4763.63
5054.85 7685.38 7947.4 7460.44 6866.46
1635.78 2583.46 8457.76 2158.58 6381.41
592.615 6911.6 9535.15 7910.76 8239.73
2912.58 2181.65 4114.34 6161.34 5490.12
421.483 5048.1 3498.16 3466.39 207.852
8011.21 6345.41 2808.39 9714.77 221.688
1559.13 2793.58 3474.05 6948.41 2842.67
358.505 4242.28 7191.62 9970.45 215.226
8092.23 8438.18 2543.84 5146.63 5032
8743.35 5051.59 2608.35 6373.17 8138.35
2959.42 2554.04 8394.54 3494.51 9375.06
2008.82 7349.98 819.158 2131.18 99.776
3378.23 2836.86 1417.18 8087.42 6453.68
3300.41 1128.98 5541.13 2267.65 8508.32
6061.47 1597.52 5613.56 4453.84 1259.41
8387.97 2016.32 5703.73 7970.42 9729.23
2833.68 7044.98 2488.58 2136.74 8073.21
9540.05 5744.5 6427.54 6911.66 7942.75
5224.6 9702.87 8964.89 5360.1 7167.72
2801.86 2385.91 9272.65 8931.85 4907.24
347.716 9294.42 4955.32 7241.76 2349.83
966.51 6391.45 7163.4 8318.4 2293.56
2080.63 2821.15 419.325 4021.13 5438.3
3508.22 8738.43 6038.33 7909.57 9238.31
5176.31 8287.63 2192.1 6581.2 4104.29
3185.6 4645.84 2197.35 118.22 6038.21
990.339 1667.54 5858.91 8311.36 5172.16
6007.8 7887.15 1638.91 8997.06 8122.07
5836.52 9502.95 2338.03 9383.98 554.74
7617.8 3919.96 6606.92 4095.61 5372.96
7319.87 2375.3 1843.56 4621.95 1667.41
9132.86 8937.62 500.212 2728.45 2806.48
837.501 3055.98 2029.59 3478.9 1824.96
7000.05 2682.55 1150.66 9674.56 7250.4
6134.13 5587.02 2112.56 962.125 4971.38
5286.04 2686.57 350.425 5855.05 8477.18
8095.3 8577.72 8723.63 8890.69 6017.11
9910.83 5977.28 5369.09 7153.18 9783.32
3561.6 9046.59 8047.43 8287.02 9394.53
4696.07 6084.36 2572.18 841.821 1494.13
3284.87 3275.18 3238.85 9054.35 9961.94
7440.17 9462.37 8150.59 7134.01 2769.57
9944.88 1061.95 5613.35 2002.71 2046.7
5110.25 9054.39 4600.02 2044.56 1852.38
4622.84 3976.47 6886.59 6349.2 2797.4
1169.5 9982.94 5133.92 6927.67 5407.29
5730.58 1807.75 106.774 4290.66 7726.34
6336.43 5636.36 4677.15 3589.83 2787.64
3544.52 4686.28 1793.99 8641.51 1967.3
5987.81 1812.2 8956.08 9132.95 9876.85
9885.65 5823.54 4988.28 279.061 3392.15
9615.38 5761.64 9512.18 6463.02 9009.41
7876.92 677.754 3517.91 5146.52 5124.69
7589.77 7627.37 4683.38 7257.85 6386.3
405.963 4297.68 116.928 9057.6 9393.32
3348.41 26.9453 5644.08 7991.34 6007.7
1595.06 4093.45 4387.54 2472.53 3820.51
6111.51 886.588 1229.2 8924.73 4025.35
2806.7 3117.76 57.1705 2671.78 2496.66
246.514 499.564 7468.28 1879.87 5888.53
9656.3 8133.61 4874.79 8386.84 4963.57
6067.43 9675.79 9569.38 7168.28 1625.7
8259.48 7875.53 1515.52 2265.12 1494.22
5579.9 1368 9009.57 4980.92 6257.69
4985.95 2041.97 3581.76 3711.74 2924.13
9302.64 3771.43 6294.75 2941.18 9487.67
7395.28 9547.84 3938.84 9096.63 8957.76
9989.09 5477.15 443.484 8721.55 9435.55
4183.29 7234.5 3217.65 3813.01 4857.72
6827.31 1733.11 4008.2 5569.8 2088.58
9038.72 2341.89 1797.68 3800.56 5904.08
3260.77 560.246 4335.21 6935 6488.64
4005.11 4152.12 7990.06 2015.35 544.04
4446.5 7920.63 3698.15 1636.55 5038.55
1953.53 4718.34 5474.92 262.473 5555.36
3918.92 1050.04 5510.15 844.561 3415.01
3221.14 2535.21 3768.17 6881.21 4823.39
727.88 6061.02 2436.43 3057.89 9585.74
3823.72 2330.39 7361.2 0.281484 6923.42
4873.34 9901.31 4111.2 149.771 6914.2
417.389 4982.54 1387.33 9223.51 5352.03
1842.64 8698.07 5180.62 284.255 7947.12
1735.26 3577.38 152.165 84.7247 7014.46
7109 2137.12 200.266 3131.24 4957.1
9118.36 661.205 4479.17 1709.2 1737.26
4158.5 782.243 3987.5 2101.25 9192.26
3751.73 2216.01 582.068 3272.59 4871.7
7642.9 2061.85 2081.85 5245.22 3703.35
8853.28 5451.59 7819.95 5590.67 8040.71
5241.38 154.697 6014.04 2481.34 6948.75
1255.28 7629.01 586.543 4394.87 6128.53
6232.55 7523.38 3094.53 5021.28 9974.57
7219.08 8155.18 3623.34 5258.4 6672.65
6846.29 42.633 3851.19 707.441 5680.87
8695.88 8704.26 1808 5668.08 515.697
4934 5216.1 147.309 3783.39 3635.61
1478.29 7626.15 2358.47 906.223 8565.55
6405 5407.44 7895.02 1147.12 8803.42
1782.31 3032.18 8364.72 8716.45 2360.45
8341.64 8290.49 472.94 5064.67 7948.02
340.461 5321.82 8522.28 3081.34 3881.85
2870.57 4111.66 5080.7 4883.33 543.309
8938.81 4784.07 1950.97 1256.58 5063.59
8658.57 866.302 3144.99 8389.07 4514.1
9319.37 4957 9672.72 631.081 5791.8
3056.56 4099.47 5651.84 4445.03 2925.18
6146.09 4252.05 3215.42 7.55991 9382.53
8173.37 9015.67 1474.72 6192.56 2902.04
7944.34 5896.94 1537.76 582.117 590.19
9730.32 6302.76 1506.04 7907.66 8132.54
5225.14 435.641 198.662 495.822 501.361
9828.64 6494.08 227.791 7764.17 3879.95
1559.42 1993.62 2338.79 8979.98 2461.4
9119.74 8339.62 2205.83 2388.4 7369.71
4847.11 8913.21 6466.33 7679.33 2626.34
4740.1 1923.12 3223.84 9908.97 7435.04
2774.13 227.372 5244.6 2606.01 1967.82
4530.41 4092.47 1854.74 2053.6 6429.56
8953.58 7356.62 7220.88 4381.31 6860.2
103.796 1540.55 950.139 6409.59 290.259
9371.87 757.479 7684.14 2443.41 7808.3
9773.17 8999.99 6914.79 6805.86 7541.88
5184.48 5106.04 6610.49 6176.95 5468.42
6546.29 7174.54 7254.4 8779.17 3973.9
4237.16 8560.91 8403.35 685.322 3165.72
8667.24 7340.36 4043.18 8916.61 8447.05
9526.6 1722.55 792.347 592.9 3179.7
2102.89 6044.06 4627.47 4970.1 5854.14
637.306 4452.09 5948.04 7616.54 4931.59
1301.03 2212.5 6872.03 2744.61 3698.61
4560.08 4545.36 9620.05 664.006 5242.09
1072.34 3758.2 6916.32 1703.81 1600.37
9126.48 1892.89 6228.63 1924.1 613.273
6320.28 3764.23 4678.89 8158.31 6619.42
8518.12 5711.69 2348.13 9810.34 7958.86
6129.69 4639.02 9157.54 7380.29 3814.17
8484.89 4468.42 765.956 6221.28 1141.66
2590.85 6979.02 1858.05 3853.17 5732.03
4545.22 2296.3 9243.85 6522.26 7515.54
4171.47 388.1 7582.39 2661.67 7023.44
4855.02 8103.05 7835.21 4512.08 5877.8
8356.04 4496.05 6360.52 3490.01 2109.02
6111.03 2845.62 8507.33 397.023 9613.23
9948.18 1912.63 7279.5 4690.35 5853.1
6384.08 6489.77 5319.45 3547.23 5412.29
3511.73 3095.74 6152.75 6944.98 4990.03
9555.99 7879.28 7853.92 1735.97 7349.01
3591.07 4919.64 6352.03 8315.75 237.918
2884.94 7661.98 8553.18 5070.34 7598.09
7601.94 7823.46 7577.94 891.975 2314.35
4914.2 9974.57 6874.5 1834.88 9603
1900.07 3274.45 3262.61 9876.74 5057.4
8099.41 9071.28 1381.64 1600.56 2984.22
8903.63 7972.57 3142.83 6975.43 6999.03
1810.91 819.235 3680.13 4998.7 4504.67
9385.2 7135.23 8988.43 8276.93 2734.85
317.336 6572 8400.85 8525.58 6174.14
5632.51 8234.94 8348.5 6671.55 8828.45
9988.22 8374.12 1035.45 9991.02 7725.22
929.477 3127.71 8227.34 4838.49 2273.33
9559.68 5323.06 1863.06 5004.26 6989.38
1772.66 8767.82 4542.29 74.1111 4673.7
6041.3 337.226 5899.16 9849.06 736.736
7810.81 5460.18 2129.24 8304.84 6357.43
3529.71 2419.55 5473.69 207.865 3321.13
3328.17 6962.49 7086.89 1956 9158.35
9051.99 7796.38 7399.94 8678.38 7627.05
2829.62 2376.9 8730.02 2257.26 1866.2
8379.35 5774.69 1550.12 6526.11 9888.15
9095.25 5684.07 8945.78 5353.32 5653.29
4314.71 1467.82 9366.71 8240.07 4338.06
5675.67 7461.17 6570.75 3038.77 1180.87
3030.89 6244.33 3101.52 7775.74 7031.66
5154.68 3038.19 6176.02 8202.13 9674.34
6440.82 5018.3 3290.5 2028.11 8448.8
1335.5 8609.88 7891.95 820.763 5757.13
8141.69 713.565 1734.49 2592.76 841.761
6042.72 4802.32 9946.83 9470.94 4882.3
2117.36 4839.29 7485.63 1608.43 6837.87
3216.28 7561.17 2567.47 8890.86 3263.79
4727.81 3495.84 5445.11 8359.33 980.592
8156.23 4757.26 6521.95 5255.71 3981.94
9771.37 3323.85 1096.46 2501.72 4004.68
5279.44 2538.98 461.619 4772.33 9200.15
7789.13 6242.67 942.47 5671.19 6588.27
4840.55 4939.18 3262.34 4804.38 6981.56
3986.91 9586.01 1777.86 9151.87 8416.56
8363.41 5016.04 5024.11 2376.42 9731.27
4513.7 3543.73 8076.15 4193.29 6802.55
7991.37 8295.41 1543.64 8807.46 7057.02
2087.26 7339.24 626.334 6806.11 7230.8
1635.79 6564.55 633.573 5008.86 2252.36
7362.71 5766.54 404.182 4573.13 7135.34
3312.82 1660.09 5682.33 854.183 2127.75
8831.9 5700.5 9759.1 2816.41 1417.13
2191.49 9806.67 8012.78 7638.96 3651.62
356.462 1594.66 8453.38 3188.49 2733.47
5132.61 2710.02 9373.68 6889.26 6837.62
9130.15 4325.73 3947.19 4816.48 4715.05
2905.32 9290.16 5575.92 8071.19 4144.28
8144.72 3682.24 1538.32 1853.08 2257.96
8549.83 361.858 1293.05 4630.12 4691.17
60.5988 937.041 6596.3 53.976 4232.64
275.464 7021.92 5920.84 1695.3 7922.9
9419.97 5438.6 5652.73 8143.57 9455.5
972.407 5654.24 6110.77 589.927 2211.38
3260.73 7445.97 2897.27 9335.6 7210.31
9164.13 8926.46 8718.28 6509.94 287.582
7291.23 9451.27 2235.28 6398.29 8764.99
5041.16 8058.83 2848.63 198.675 6496.78
7957.56 916.589 2101.36 5359.03 1215.94
1946.28 2415.93 9557.04 6936.56 7813.55
1155.84 6528.33 2487.91 8896.25 6401.4
5450.05 6733.77 7874.42 5184.36 2870.17
1797.84 2815.24 8352.67 24.321 8124.94
9529.37 3366.01 5985.29 27.9183 4956.57
4481.55 4982.1 8275.05 3529.9 1993.81
7954.79 734.198 454.644 5280.93 4481.62
2547.79 2085.81 7223.91 7818.71 3884.2
786.618 424.716 2273.58 5680.92 8295.69
4684.43 9949.48 4297 8615.74 5057.62
7315.07 2858.98 9846.61 4365.71 119.927
5387.33 9640.05 4849.17 9372.48 1103.87
8954.86 4730.71 1634.46 2314.46 1631.01
9462.26 5592.54 3096.88 1788.99 6622.79
3550.79 6030.08 9552.24 7879.07 447.413
3992.68 8741.34 3951.6 2721.13 65.0569
7496.82 163.236 7039.12 4643.4 2643.18
9429.31 6814.4 459.458 8232.54 3313.46
2235.94 2782.8 5941.41 2097.75 1520.47
5776.6 4435.45 7315.66 656.475 5356.85
9954.09 3310.13 5399.81 7032.67 8494.86
3640.51 7223.5 1226.1 4691.09 9398.07
7217.72 7376.95 1228.26 6026.07 6313.03
882.693 8391.74 5197.53 1540.94 8214.36
9093.74 928.936 8441.29 349.332 1021.35
1079.02 6736.31 8414.13 7258.61 5660.75
8897.82 73.8995 9728.98 1373.47 7478.73
8927.61 7527.6 9573.3 8182.89 4852.33
4769.64 2267.49 4327.59 6980.31 3087.81
2357.95 3137.26 9027.23 6356.35 6119.78
9905.91 2159.76 4368.6 9909.59 2426.41
4273.74 2135.29 8726.14 4962.68 4205.92
7485.21 1682.25 8147.09 8330.45 4047.52
7199.64 3352.5 1254.82 42.8229 6059.56
7599.44 3644.59 5448.45 4823.6 4288.98
7738.5 4542.69 7837.13 3807.62 4448.12
7616.72 2090.54 8366.27 3257.58 8949.31
9146.9 8837.28 9533.95 1015.64 7902.75
2639.63 5334.64 7729.74 21.005 989.11
6834.51 2302.1 949.394 3975.92 1096.24
3940.49 9409.22 8746.78 1158.37 9480.24
538.599 1459.06 2819.92 1589.47 4366.26
2386.28 1583.71 1442.23 1605.37 3019.75
1448.8 5359.32 8286.92 2036.57 8554.18
3514.05 7699.08 4043.6 179.342 6598.26
6760 704.656 8489.89 8909.41 6037.55
3954.77 7841.23 9664.63 3373.87 1555.48
5075.16 9753.72 3912.21 2433.59 9817.71
7109.95 6089.07 2043.59 9600.97 1043.72
2652.07 7796.59 2489.01 9808.4 3236.73
7291.79 4219.88 9814.5 6069.87 3916.86
8368.61 9982.26 7537.64 7881.31 3415.01
9353.06 1816.08 9098 1075.59 1366.44
9166.5 8946.5 3713.08 1220.79 9459.37
743.44 104.272 743.533 6417.3 8258.12
573.623 4021.29 3070.64 6911.54 9134.88
6414.8 2461.1 7210.87 3590.69 9252.23
6417.63 8180.9 2620.55 5213.84 3042.24
9961.86 2211.92 7262.46 764.644 4346.3
1075.46 1825.77 9793.74 2122.3 8709.9
4521.71 4894.8 4975.51 1516.94 6701.55
8143.99 8179.27 5243.55 2002.58 5253.29
5164.85 5861.66 6525.04 90.2099 5168.78
5319.92 5528.77 3279.56 5035 1448.7
1135.46 1567.78 3004.03 8846.33 4632.01
9876.99 9660.17 6039.58 8408.12 5422.29
509.394 1138.97 3490.36 609.805 2481.96
7268.6 669.686 6662.7 7819.44 1539.07
7472.9 2097 7245.11 7072.06 3954.26
2834.53 8508.44 8304.16 496.334 7883.2
927.931 2069.87 2375.58 9828.42 16.7618
6485.94 1071.63 8915.67 1060.12 3270.61
3805.48 8786.68 2419.91 8349.04 439.647
5760.2 8909.7 7257.75 5079.46 2709.67
5250.57 1706.08 4757.26 1397.95 3755.43
9483.73 8246.92 5454.87 9714.93 5879.12
798.376 5588.1 1957.22 5525.94 967.59
2215.99 9682.45 8261.08 511.935 1948.93
826.152 17.783 4417.41 5591.98 7348.35
5364.03 9914.3 4714.21 684.037 364.427
5847.34 5085.72 1866.2 1585.26 4978.04
3076.62 1504.09 3523.41 1854.09 4128.8
9565.05 4634.24 9600.44 9192.82 5479.99
7948.21 5652.63 4796.47 3576.48 8066.85
8726.33 5895.71 6846.44 795.289 3278.67
8566.46 1010.69 2745.31 4467.99 1792.73
4504.57 6070.86 675.453 4346.3 2661.41
9625.36 7839.18 2699.64 1926.26 7401.9
9663.76 5270.56 6429.77 5170.42 8976.18
5133.06 3479.18 4704.9 6188.16 7963.19
5564.69 5411.17 1448.14 1372.59 7797.24
5225.35 8679.67 8400.76 8841.98 7087.69
142.808 7028.13 411.502 274.935 4295.76
8658.9 4564.32 1544.2 7106.56 6937.97
5575.96 4134.68 8409.48 6758.45 5193.91
3618.5 3230.58 8873.97 2808.65 3664.38
8511.84 924.646 8820.12 2472.46 3759.74
4382.72 9686.94 9685.86 7555.52 6162.84
9709.06 4481.23 9543.38 6535.74 2759.56
8768.92 2004.58 7886.79 2920.91 5286.38
4912.27 9982.61 6463.03 6789.37 940.874
7425.32 8167.5 2790 3588.63 798.117
6569.63 7133.01 7251.21 7802.83 8837.06
2681.58 6030.12 9135.62 3179.22 4959.2
2252.31 4861.94 1284.88 5764.68 4069.57
9525.19 5798.1 4736.78 7144.24 5979.22
3801.4 2711.06 9788.12 9194.2 6303.9
9129.4 5533.53 2172.9 2944.79 564.054
387.29 9230.68 7331.12 9619.65 8424.91
6214.63 8073.49 5201.35 1230.83 4900.97
5023.31 1769.84 5172.4 9787.71 1437.38
7332.26 4.95139 4969.74 7304.33 2108.94
9465.49 5496.22 5197.94 6974.58 6811.83
3300.76 3606.53 5409.7 654.969 5129.19
5449.83 466.941 5695.92 4270.06 3163.43
7866.4 5915.47 8432.37 3488.73 471.211
3792.65 840.712 2814.91 7679.88 1781.8
5947.57 6422.15 9643.76 2377.55 2644
8058.3 9966.63 1338.97 681.758 401.183
1254.97 9442.79 1154.34 7094.16 6928.74
234.67 4301.79 8133.93 7236.2 2755.5
5117.76 7660.64 3589.76 9396.67 2854.08
721.731 5294.3 1365.04 692.205 4772.49
7815.48 1829.84 1537.59 5769.1 8639.82
5461.71 2593.34 2405.61 4340.55 3022.31
2466.93 4707.46 2466.89 968.214 3733.69
4953.13 5628.08 3218.87 3360.81 3264.24
8572.72 4252.9 6454.01 9073.98 2759.77
1029.39 4055.42 4591.63 2440.7 4250.48
2587.79 2198.51 8277.36 7566.36 9091.14
6547.61 6490.56 171.571 791.303 1599.89
1510.4 1453.59 6727.89 2707.83 3978
6082.56 3200.51 2325.87 6551.42 6618.61
7882.51 6899.72 8573.84 4899.66 8588.58
9468.19 6005.64 575.071 4672.83 7804.88
308.985 6857.61 7143.95 2548.23 7986.02
1227.02 6305.4 8100.57 8673.47 3063.25
3169.87 7903.06 7669.92 125.557 6109.46
5575.23 7824.52 2909.18 8462.19 2690.45
7965.43 2844.06 5556.09 8339.22 6791.38
3691.18 1438.63 3477.59 9233.07 4880.86
2408.96 418.887 8082.95 3436.73 149.551
2261.7 8778.93 8527.43 5502.01 9555.43
9635.72 1171.5 8122.6 8342.36 8086.69
7972.86 3771.49 9495.47 7773.68 8851.18
9903.76 1993.89 3393.43 1236.21 2023.32
8251.12 8398.29 27.1605 6615.38 2753.7
748.764 6819.37 1736.64 3383.37 582.45
2583.9 4696.39 4571.11 1452.72 5151.52
8049.94 1565.21 547.168 7593.89 6337.26
9894.98 2160.01 4263.03 8190.98 5387.77
1409.64 2741.85 162.339 2452.23 8695.01
5508.91 2898.13 8778.74 2045.93 8754.76
5875.13 9548.45 2231.89 6789.59 1616.49
2137.42 3997.5 2789.99 8035.95 3933.62
1250.67 4685.64 5270.99 7803.82 1720.14
8646.67 1709.72 2495.48 8706.59 7853.8
2526.74 8550.89 2505.38 533.566 4111.48
2397.69 6850.85 8722.66 7050.85 4778.17
5413.81 4963.21 6944.33 1244.8 7134.54
1048.14 226.853 2226.28 8419.78 4065.65
721.284 2840.97 4886.05 5996.45 9659.44
1824.64 1170.84 3173.19 6926 5665.59
2357.67 1834.72 8908.87 2179.81 4540.22
9918.09 5934.4 8025.58 7410.95 2149.74
6661.52 704.706 5272.47 948.542 1204.17
3199.42 4785.47 8048.66 5221.9 6393.57
1434.48 5038.83 1556.7 1587.39 72.7583
553.891 4609.49 7183.38 8685.13 1474.56
2734.79 857.218 6459.78 4849.35 6166.05
9541.6 38.3956 8915.76 9415.55 5938.68
5541.18 1549.04 861.586 2757.02 450.182
4030.97 6386.92 2853.17 3462.59 2862.41
9880.77 4189.96 132.329 3111.67 1519.43
6139.15 419.082 8866.65 1437.38 1365.17
5723.62 8715.41 4091.64 8442.08 3900.09
4468.8 7216.42 5195.9 1208.88 7258.01
9808.02 1512.92 3487.6 4855.85 5501.57
5076.61 183.316 3354.89 9257.4 6687.48
8831.13 5140.77 7632.32 9551.86 8401.39
6588.51 6443.75 4741.48 1895.48 7267.66
4075.75 1850.53 5797.09 272.181 3049.47
8871.98 9214.4 6994.3 446.517 1081.91
9541.57 3167.42 5739.77 3871.75 5193.2
999.597 761.162 3687.45 1465.88 6782.76
8554.18 1631.33 7443.45 7766.73 6492.41
90.2813 4151.52 9712.51 1519.68 4467.38
1049.5 2122.4 8197.01 4913.38 9026.18
9257.38 3358.84 7944.37 8789.21 9167.07
2422.65 4090.97 5131.25 3793.49 8060.28
9459.19 5881.96 8726.04 5447.79 4899.89
1851.8 7110.93 4445.28 1121.42 8634.67
3998.73 6473.24 9467.53 8101.49 5057.34
1093.01 1708.89 9971.03 6014.51 7798.37
2848.13 659.311 9949.84 1043.5 5929.95
5547.49 369.181 1153 3308.65 3105.73
1117.02 3697.86 9660.69 7055.98 392.41
6397.56 7744.3 3886.43 7696.21 9169.66
2959.4 8176.69 4750.1 7472.91 5083.49
776.331 6552.83 9735.42 8078.77 8354.64
8094.9 5763.7 4546.28 7709.95 4373.44
2631.17 9772.68 5326.71 5827.6 1873.32
7650.9 4633.72 7891.76 7882.7 4513.01
1441.4 824.946 2687.25 7060.28 5359.42
5194.16 220.415 9812.05 8168.54 3911.8
9106.72 6792.4 8793.33 859.424 9797.01
2705.52 2709.28 4553.17 9087.68 431.177
1475.71 4932.35 7469.66 1712.06 2586.02
5272.28 4842.24 2308.13 6354.49 8241.18
7868.2 5017.38 7916.25 6682.5 8181.11
6667.6 9622.1 8351.52 401.383 2551.95
2849.12 9225.73 2535.67 2820.08 972.327
4116.19 5156.23 8586.72 2637 5266.96
3926.49 1748.99 6299.75 2929.31 5679.62
4722.51 1104.71 561.198 8387.28 621.761
993.817 9802.06 7836.62 8481.89 3588.94
1523.54 4567.86 3594.13 8006.75 3033.76
1749.24 8498.09 9615.13 7534.67 955.001
9944.97 6240.2 1084.02 6144.96 6016.59
2946.31 4689.42 6273.41 1107.47 5266.96
1695.08 7552.27 7919.18 2973.62 1239.86
1721.1 5285.46 4465.82 9712.87 3279.4
3584.37 3417.53 4358.18 2899.87 7287.75
7268.7 5725.16 7368.9 1381.95 1459.44
9715.87 55.0696 8338.13 1294.32 9565.38
5500.31 964.793 6236.06 8380.53 5864.21
9645.34 4274.89 2764.5 3144.35 8792.98
9295.97 6224.82 5002.19 5981.63 1919.74
3069.04 8305.86 4107.39 787.267 2839.71
7115.93 4357.34 8532.46 5600.31 3949.6
9816.82 9502.49 2570.77 2099.83 2999.23
6315.66 6430.96 2602.23 3631.62 8521.13
3329.43 4175.3 7933.13 353.246 9101.18
2821.63 8908.57 6233.17 8149.37 558.907
89.9327 5509.42 7109.63 2652.01 980.259
213.17 9923.76 7581.29 955.168 8344.68
6464.83 6461.93 5613.25 9481.51 4915.1
1064.08 6930.22 5422.75 2718.63 1916.72
7761.42 3644.39 1683.41 5583.77 7221.88
5378.92 1211.37 6745.09 6204.7 7209.68
8785.53 8056.41 1259.66 242.643 6423.96
2016.56 4244.36 4042.4 1862.79 9251.64
3482.43 9585.4 1219.96 4895.37 3775.48
2659.55 7190.65 8812.27 665.329 6051.83
8808.13 3851.83 1014.04 4787.91 3110.53
6742.81 7315.05 4624.03 1630.24 6475.26
6777.84 3391.24 6704.68 8411.43 4340.45
1812.75 3755.08 889.163 3517.11 8124.04
7371.97 8966.77 9262.38 6842.65 7697.75
3050.43 2630.38 3101.5 1784.64 2452.61
2338.49 7875.51 1448.08 4755.82 8679.03
5471.94 1807.04 2450.23 3436.07 7742.64
3932.08 1727.69 590.7 9971.28 2246.5
2629.78 4965.63 4376.83 5624.19 2512.36
44.6689 2209.2 4242.49 6501.08 4005.53
6820.09 7474.59 5310.68 1175.94 8600.62
8099.33 1656.29 3579.09 3448.43 2225.11
4350.83 3336.09 3063.11 4687.74 6917.37
9780.1 3583.4 2938.03 885.938 6855.38
9885.68 1370.08 6167.12 5726.21 1754.04
6310.04 612.079 442.329 2466.05 1593.85
348.649 8998.96 4695.07 1069.18 7102.6
2210.24 5386.94 9351.17 8768.91 8064.05
7499.06 9619.9 8164.18 8514.53 9608.98
3327.7 9411.84 609.106 653.524 4900.98
589.845 4940.58 5492.83 2784 7397.37
8946.73 7740.91 8453.81 7394.45 8144.63
8506.81 6434.6 5886.03 9010.55 2493.69
909.552 4925.96 2815.39 3449.62 5575.13
305.886 410.373 6221.98 2325.85 7012.08
1310.83 5692.03 8857.54 1285.12 8226.38
2820.85 6344.58 399.887 3457.14 2025.36
2253.62 1492.43 684.997 998.801 2748.33
5588.44 1492.28 1737.61 8814.4 7656.62
1479.84 103.996 5587.21 2052.75 5727.92
561.688 12.4449 6867.29 1322.16 5722.69
1711.67 5639.7 8587.26 5005.44 5007.98
906.33 6712.92 767.045 4446.34 4111.54
5476.74 1212.89 2964.31 8702.47 7428.47
9623.94 9732.27 9698.81 3888.92 6346.02
2047.54 1615.05 6025.03 244.116 6270.49
2180.79 9821.67 1409.07 9150.19 5655.14
3102.78 3380.43 5671.74 4528.83 920.72
2509.1 4880.48 3799.79 1967.66 8963.54
5786 6806.7 8270.52 6923.14 7911.02
1177.04 2482.94 9746.13 5594.28 4492.06
8718.99 1783.75 9455.32 5757.26 500.239
9622.11 1381.34 7471.1 1843.08 4055.71
32.0075 1434.32 7730.96 2900.51 5077.42
589.154 3445.42 4028.84 472.282 2105.07
8208.44 7131.78 5329.64 4264.71 6371.07
5564.46 1693.29 1513.95 9474.59 5100.72
2731.28 4016.69 2709.03 600.388 8463.35
1088.37 2464.82 4628.25 5220.15 6992.81
7130.15 8162.78 8723.45 3700.5 8288.97
2530.6 2952.01 3193.82 1058.31 2662.48
6199.97 907 1151.59 796.554 1090.82
9967.21 9445.9 1911.13 9655.96 286.702
8171.84 9388.5 3529.92 9440.2 251.456
2558.53 5088.16 9211.19 3989.09 1093.64
7238.12 9993.36 9555.19 788.917 6790.26
9901.19 9501.15 5503.58 6000.08 5848.93
6568.51 1870.65 5563.35 4710.49 3862.26
9082.8 6713.68 7437.29 6050.63 9492.45
5482.78 5208.69 4901.3 7652.1 3504
4881.19 3218.46 1807.19 6325.11 4693.36
5788.71 8063.42 876.969 2047.3 1995.92
9387.5 8604.37 9458.23 1333.54 1716.3
3610.24 7999.6 6566.93 5625.16 447.985
8445.22 2313.34 1644.83 17.1185 9428.7
6691.95 5117.34 8982.74 9907.05 6845.74
4510.44 2151.8 7128.72 4586.93 9020.65
2044.84 6085.62 4106.24 6911.48 2114.7
3562.31 2281.95 3227.36 6857.82 7388.75
7384.78 8662.78 7374.65 2856.22 5616.11
9485.24 1248.95 5927.03 3820.02 1657.09
362.794 6496.68 4619.39 4499.77 6749.09
9193.46 5411.83 7293.63 9461.7 9008.5
198.974 644.08 4265.49 4726.83 3578.74
612.738 2869.68 1032.93 4301.52 2262.53
9353.3 7879.07 2451.54 5794 385.856
8322.3 5169.74 2105.52 4312.95 5846.18
2601.68 8348.35 7869.66 7982.66 1905.03
6447.56 959.854 7579.58 8963.4 4320.03
9910.89 4355.97 7523.62 3240.76 8915.17
5543.74 3715.94 6598.41 2090.27 4426.31
746.999 5951.3 1820.57 9709.39 2851.27
8185.99 4519.04 5604.69 5702.75 121.254
3757.81 2570.28 445.417 4066.3 4620.59
8942.78 3987.02 3685.37 9120.3 5870.07
5293.06 5266.48 9075.83 595.646 2920.15
1967.38 556.211 6926.27 4900.61 4957.31
1302.75 9240.79 2389.67 6386.58 2086.75
8666.55 8513.53 6503.28 5475.41 7304.47
897.292 2183.99 4740.71 2970.21 9520.65
7628.02 9409.34 6726.73 1055.49 441.594
3803.19 1415.96 5837.31 687.236 6896.18
885.068 3378.76 4983.84 7211.54 1737.54
7104.42 9166.79 7563.94 7073.41 4093.45
4936.33 3175.63 8695.27 8014.92 9570.03
3002.14 6444.46 8429.3 9082.35 6980.29
9963.84 1659.97 8896.73 2859.25 9493.33
5512.93 3555.05 732.165 8379.01 4094.26
1084.74 4184.88 9199.38 5935.18 5849.02
3726.19 9616.15 7388.24 4516.19 2001.75
267.217 3114.27 4681.64 4836.4 3215.69
1988.98 3133.32 3568.37 5886.62 9264.96
7732.6 6263.95 2265.59 5805.7 2118.62
8857.38 9310.99 8155.65 8600.73 2146.11
4079.58 4248.25 8876.8 1340.48 8966.93
9673.94 651.191 7498.93 367.81 9502.35
7798.81 5429.75 2230.02 219.807 1832.73
7089.97 2019.72 5826.06 4805.4 5259.31
4341.55 4184.9 1989.83 4248.04 1401.24
6584.6 8586.75 6060.69 6467.35 9181.53
1878.56 801.06 1619.42 522.78 3937.42
2934.35 6370.37 3826.99 5455.37 767.475
6486.59 3469.77 1756.19 6404.24 7059.11
5073.69 3134.78 9562.9 2596.32 1531.06
9930 8924.1 5834.63 4509.69 1164.83
8544.59 2547.56 8783.82 7177.55 6899.61
8761.93 1150.95 783.079 576.191 411.166
7380.22 1764.23 2296.05 3861.17 2769.67
757.919 4662.46 1092.11 2276.51 2041.88
7760.91 1877.16 5212.02 586.016 2585.09
9238.94 4675.66 6424.08 2476.96 4227.73
5781.9 1746.26 4083.9 5926.27 9737.92
823.315 3245.56 4106.39 6409.16 8836.35
1306.31 6411.89 4168.99 2621.08 2319.63
1174.17 6724.78 1062.62 664.2 995.079
3209 7328.04 5078.58 4725 7993.54
9806.71 6440 2429.23 6650.58 8895.8
2838.48 1732.44 2696.56 5126.91 7576.58
432.32 97.7904 8201.82 1606.29 3502.25
3786.18 2162.83 5109.92 273.974 2165.01
3845.73 7344.31 5961.72 1997.03 2739.07
7722.68 1667.26 3896.24 721.726 2132.37
5463.83 2377.92 6044.11 7731.3 6968.3
7372.46 2893.23 6262.03 9304.8 7963.74
8351.21 8521.12 3229.33 3449.37 357.5
5917.62 952.837 7235.32 3089.72 2380.08
3575.28 2708.35 2333.92 245.019 2465.29
8250.23 1399.85 658.93 2526.59 7952.42
9463.69 1804.38 467.367 3738.87 3212.21
1975.68 9030.94 2275.76 1359.95 5951.7
5135.86 5724.67 6831.65 9287.99 2684.28
9768.48 1307.77 3627.99 8368.87 1649.48
8357.54 3727.33 9490.65 9358 7617.81
9769.59 5656.09 9953.85 7087.42 6019.83
1027.69 9516.03 7258.7 6411.79 4706.46
2434.07 2068.69 3361.74 4835.97 1103.74
6976.45 1054.08 9649.84 8339.12 1070.27
1922.35 6103.5 7947.56 1947.02 9011.67
728.886 6454.92 2787.38 1485.85 1301.12
2287.48 4001.42 36.5335 4493.7 4579.92
9983.09 2060.37 5719.53 1465.84 4785.59
4781.31 9119.87 6932.72 7327.87 6061.51
6630.02 9582.96 8620.95 2891.23 3483.76
2544.87 5920.86 7161.63 2381.85 4021.44
4385.4 9858.04 5014.7 3070.56 1937.11
9620.37 8225.01 2509.36 3570.17 2110.65
2842.34 4580.15 1373.15 9062.38 4178.87
6547.68 542.848 4117.13 6408.36 5167.09
6631.7 7640.82 5208.3 276.877 2983.71
3656.4 4020.64 7523.51 6290.6 1271.2
1782.77 2331.73 6375.55 6344.42 7116.67
5723.62 931.713 225.752 4735.3 1068.39
7541.97 737.763 2212.73 7577.07 8814.12
4715.01 9176.43 9597.35 848.7 92.3009
1739.88 2069.39 8032.19 7808.82 7112.78
5918.41 1248.9 5742.35 883.463 9320.02
3825.16 8123.98 640.627 5898.08 7298.3
4905.24 6653.68 4160.09 3725.62 310.995
5746.38 4229.92 9296.9 1516.01 2981.21
8942.66 819.891 1362.33 6302.28 3692.52
9940.16 342.577 7419.18 5432.14 8487.15
4909.12 5655.3 4941.69 2611.14 9957.92
7567.16 3482.7 3285.5 9925.76 4712.35
8908.5 1861.58 5474.58 7641.57 7756.75
1096.57 9318.47 7179.76 3073.72 8827.23
9059.24 8126.58 7655.72 7441.58 9267.56
6351.98 5783.77 2083.86 9587.24 2524.49
2313.89 8966.84 2835.48 5679.15 9727.73
5777.65 911.691 6867.73 2628.01 3784.29
7177.41 2670.51 463.619 2178.44 9893.56
3140.28 1021.99 7622.64 4089.78 5853.86
5738.93 1871.64 9214.24 5212.22 4470.71
7924.2 3850.66 9556.36 7494.04 2531.57
683.046 307.705 3634.17 5216.93 603.755
883.301 4383.19 9489.99 3375.21 8657.71
477.353 6414.66 2347.53 3771.27 9210.57
5087.59 7864.53 9579.35 9391.65 6927.42
3921.68 7828.42 5177.97 686.641 7437.35
1050.91 2283.44 802.658 1279.43 144.426
5230.27 4586.05 655.463 7622.96 664.917
3939.47 2113.76 3214.1 6688.6 5390.99
6083.52 5405 5293.56 3532.34 946.645
2246.08 6136.7 7972 123.247 3358.5
3861.32 5075.35 353.124 8720.26 8201.44
2823.68 4616.35 135.169 4677.08 8005.95
4251.08 7367.12 4022.86 4098.12 9146.43
33.3389 9212.39 8611.84 7252.65 7389.86
5647.33 5516.35 1263.94 720.863 7820.1
6809.16 4444.35 9537.74 2334.94 3142.43
185.965 1186.02 366.837 1932.13 7808.23
707.501 668.283 6693.95 7758.93 7931.08
6318.39 3905.19 6144.63 4144.39 8839.65
8813.44 1875.57 1519.23 7484.59 5493.4
309.871 2103.33 5158.32 6566.91 9561.99
290.627 8436.44 6540.89 1566.76 3430.79
6361.63 6826.51 1159.75 5083.68 1841.11
5032.54 139.334 9281.71 3492 8019.86
4649.23 8054.81 4254.99 9756.8 2389.37
6966.07 8308.46 9230.76 797.022 1518.98
4937.04 6489.7 9161.8 5435.71 6643.3
4762 5983.19 5749.08 3344.17 3208.68
404.314 6493.26 7277.48 3497.67 3024.32
5132.73 2503.54 8852.03 961.376 2445.16
477.417 7319.48 626.929 3726.39 2574.4
8397.65 8748.78 6871.05 9627.41 295.822
1624.32 5615.99 5141.77 9798.07 6181.17
7215.74 4579.46 5584.45 255.416 8082.54
9387.06 9250.62 5309.92 2943.44 5713.98
6150.05 8946.16 1847.23 1721.75 1636.54
4767.42 3197.26 6420.54 8764.3 8487.93
2108.38 8790.76 1856.92 3526.11 1057.42
7116.36 8598.2 9866.04 2931.78 1245.93
7121.11 6940.88 154.233 1180.96 6641.87
1346.5 7471.44 5880.73 9584.2 8629.84
1547.56 9801.97 792.183 7684.84 9877.01
5691.16 9735.34 3612.16 3911.15 4133.92
4339.4 2227.6 9180.76 7975.96 4949.35
3635.18 1376.62 7542.87 2386.45 48.1643
9208.39 9740.06 414.965 6655.63 46.2918
7113.23 9235.82 6735.85 7840.17 9612.14
2518.88 6497.71 2267 587.83 6348.75
2127.81 324.581 5575.21 1912.78 7764.19
4140.25 9551.42 6142.38 9664.72 5474.44
1601.07 279.538 4580.67 5938.21 6993.94
8884.17 9748.6 6036.11 4051.97 4590.04
2475.84 6068.72 2095.97 5029.26 7290.86
9331.18 7592.1 8310.75 1435.14 8484.22
9076.87 6356.39 5328.88 2332.07 8165.14
2790.75 2408.49 60.6737 5131.38 6874.69
2038.55 2205.76 3531.84 3234.1 5366.37
9660.63 358.638 2838.02 2462.09 1598.71
8453.56 8972.82 3172.01 3437.89 9652.96
9523.19 9439.78 6183.21 4039.62 4295.57
4007.3 9845.93 61.6112 8766.75 6845.95
6288.34 6494.01 8465.61 662.976 1849.18
1850.02 1932.83 8843.75 9323.12 158.851
6020.99 1326.96 5441.89 3023.67 651.934
7552.07 1932.36 2817.27 4366.29 582.594
2979.93 683.354 639.112 6907.79 7674.65
8046.66 3341.29 4840.46 1487.98 6118.12
6043.61 768.265 2485.46 467.119 6362.03
2456.49 9940.32 1998.48 3564.48 420.495
2247.85 896.796 9430.72 9663.87 1899.14
8763.95 5453.46 9230.55 3060.8 5409.42
